# Blender v2.82 (sub 7) OBJ File: ''
# www.blender.org
mtllib tetrahedra.mtl
o Solid
v 0.000000 1.000000 0.000000
v 0.942809 -0.333333 0.000000
v -0.471405 -0.333333 -0.816497
v -0.471405 -0.333333 0.816497
vn 0.4714 0.3333 -0.8165
vn -0.9428 0.3333 0.0000
vn 0.4714 0.3333 0.8165
vn 0.0000 -1.0000 0.0000
usemtl None
s off
f 1//1 2//1 3//1
f 1//2 3//2 4//2
f 1//3 4//3 2//3
f 2//4 4//4 3//4
