# Blender v2.82 (sub 7) OBJ File: ''
# www.blender.org
mtllib torus.mtl
o Torus
v 1.250000 0.000000 0.000000
v 1.216506 0.125000 0.000000
v 1.125000 0.216506 0.000000
v 1.000000 0.250000 0.000000
v 0.875000 0.216506 0.000000
v 0.783494 0.125000 0.000000
v 0.750000 0.000000 0.000000
v 0.783494 -0.125000 0.000000
v 0.875000 -0.216506 0.000000
v 1.000000 -0.250000 0.000000
v 1.125000 -0.216506 0.000000
v 1.216506 -0.125000 0.000000
v 1.239306 0.000000 -0.163158
v 1.206099 0.125000 -0.158786
v 1.115376 0.216506 -0.146842
v 0.991445 0.250000 -0.130526
v 0.867514 0.216506 -0.114210
v 0.776791 0.125000 -0.102266
v 0.743584 0.000000 -0.097895
v 0.776791 -0.125000 -0.102266
v 0.867514 -0.216506 -0.114210
v 0.991445 -0.250000 -0.130526
v 1.115376 -0.216506 -0.146842
v 1.206099 -0.125000 -0.158786
v 1.207407 0.000000 -0.323524
v 1.175055 0.125000 -0.314855
v 1.086667 0.216506 -0.291171
v 0.965926 0.250000 -0.258819
v 0.845185 0.216506 -0.226467
v 0.756797 0.125000 -0.202783
v 0.724444 0.000000 -0.194114
v 0.756797 -0.125000 -0.202783
v 0.845185 -0.216506 -0.226467
v 0.965926 -0.250000 -0.258819
v 1.086667 -0.216506 -0.291171
v 1.175055 -0.125000 -0.314855
v 1.154849 0.000000 -0.478354
v 1.123905 0.125000 -0.465537
v 1.039364 0.216506 -0.430519
v 0.923880 0.250000 -0.382683
v 0.808395 0.216506 -0.334848
v 0.723854 0.125000 -0.299830
v 0.692910 0.000000 -0.287013
v 0.723854 -0.125000 -0.299830
v 0.808395 -0.216506 -0.334848
v 0.923880 -0.250000 -0.382683
v 1.039364 -0.216506 -0.430519
v 1.123905 -0.125000 -0.465537
v 1.082532 0.000000 -0.625000
v 1.053525 0.125000 -0.608253
v 0.974279 0.216506 -0.562500
v 0.866025 0.250000 -0.500000
v 0.757772 0.216506 -0.437500
v 0.678525 0.125000 -0.391747
v 0.649519 0.000000 -0.375000
v 0.678525 -0.125000 -0.391747
v 0.757772 -0.216506 -0.437500
v 0.866025 -0.250000 -0.500000
v 0.974279 -0.216506 -0.562500
v 1.053525 -0.125000 -0.608253
v 0.991692 0.000000 -0.760952
v 0.965119 0.125000 -0.740562
v 0.892523 0.216506 -0.684856
v 0.793353 0.250000 -0.608761
v 0.694184 0.216506 -0.532666
v 0.621587 0.125000 -0.476961
v 0.595015 0.000000 -0.456571
v 0.621587 -0.125000 -0.476961
v 0.694184 -0.216506 -0.532666
v 0.793353 -0.250000 -0.608761
v 0.892523 -0.216506 -0.684856
v 0.965119 -0.125000 -0.740562
v 0.883883 0.000000 -0.883884
v 0.860200 0.125000 -0.860200
v 0.795495 0.216506 -0.795495
v 0.707107 0.250000 -0.707107
v 0.618718 0.216506 -0.618719
v 0.554014 0.125000 -0.554014
v 0.530330 0.000000 -0.530330
v 0.554014 -0.125000 -0.554014
v 0.618718 -0.216506 -0.618719
v 0.707107 -0.250000 -0.707107
v 0.795495 -0.216506 -0.795495
v 0.860200 -0.125000 -0.860200
v 0.760952 0.000000 -0.991691
v 0.740562 0.125000 -0.965119
v 0.684857 0.216506 -0.892522
v 0.608762 0.250000 -0.793353
v 0.532666 0.216506 -0.694184
v 0.476961 0.125000 -0.621587
v 0.456571 0.000000 -0.595015
v 0.476961 -0.125000 -0.621587
v 0.532666 -0.216506 -0.694184
v 0.608762 -0.250000 -0.793353
v 0.684857 -0.216506 -0.892522
v 0.740562 -0.125000 -0.965119
v 0.625000 0.000000 -1.082532
v 0.608253 0.125000 -1.053525
v 0.562500 0.216506 -0.974279
v 0.500000 0.250000 -0.866025
v 0.437500 0.216506 -0.757772
v 0.391747 0.125000 -0.678525
v 0.375000 0.000000 -0.649519
v 0.391747 -0.125000 -0.678525
v 0.437500 -0.216506 -0.757772
v 0.500000 -0.250000 -0.866025
v 0.562500 -0.216506 -0.974279
v 0.608253 -0.125000 -1.053525
v 0.478355 0.000000 -1.154849
v 0.465537 0.125000 -1.123905
v 0.430519 0.216506 -1.039364
v 0.382684 0.250000 -0.923879
v 0.334848 0.216506 -0.808394
v 0.299830 0.125000 -0.723854
v 0.287013 0.000000 -0.692910
v 0.299830 -0.125000 -0.723854
v 0.334848 -0.216506 -0.808394
v 0.382684 -0.250000 -0.923879
v 0.430519 -0.216506 -1.039364
v 0.465537 -0.125000 -1.123905
v 0.323524 0.000000 -1.207407
v 0.314855 0.125000 -1.175055
v 0.291171 0.216506 -1.086667
v 0.258819 0.250000 -0.965926
v 0.226467 0.216506 -0.845185
v 0.202783 0.125000 -0.756797
v 0.194114 0.000000 -0.724444
v 0.202783 -0.125000 -0.756797
v 0.226467 -0.216506 -0.845185
v 0.258819 -0.250000 -0.965926
v 0.291171 -0.216506 -1.086667
v 0.314855 -0.125000 -1.175055
v 0.163158 0.000000 -1.239306
v 0.158786 0.125000 -1.206099
v 0.146842 0.216506 -1.115376
v 0.130526 0.250000 -0.991445
v 0.114210 0.216506 -0.867514
v 0.102266 0.125000 -0.776791
v 0.097895 0.000000 -0.743584
v 0.102266 -0.125000 -0.776791
v 0.114210 -0.216506 -0.867514
v 0.130526 -0.250000 -0.991445
v 0.146842 -0.216506 -1.115376
v 0.158786 -0.125000 -1.206099
v 0.000000 0.000000 -1.250000
v 0.000000 0.125000 -1.216506
v 0.000000 0.216506 -1.125000
v 0.000000 0.250000 -1.000000
v 0.000000 0.216506 -0.875000
v 0.000000 0.125000 -0.783494
v 0.000000 0.000000 -0.750000
v 0.000000 -0.125000 -0.783494
v 0.000000 -0.216506 -0.875000
v 0.000000 -0.250000 -1.000000
v 0.000000 -0.216506 -1.125000
v 0.000000 -0.125000 -1.216506
v -0.163158 0.000000 -1.239306
v -0.158786 0.125000 -1.206099
v -0.146842 0.216506 -1.115375
v -0.130526 0.250000 -0.991445
v -0.114211 0.216506 -0.867514
v -0.102267 0.125000 -0.776791
v -0.097895 0.000000 -0.743584
v -0.102267 -0.125000 -0.776791
v -0.114211 -0.216506 -0.867514
v -0.130526 -0.250000 -0.991445
v -0.146842 -0.216506 -1.115375
v -0.158786 -0.125000 -1.206099
v -0.323524 0.000000 -1.207407
v -0.314855 0.125000 -1.175055
v -0.291171 0.216506 -1.086667
v -0.258819 0.250000 -0.965926
v -0.226467 0.216506 -0.845185
v -0.202783 0.125000 -0.756797
v -0.194114 0.000000 -0.724444
v -0.202783 -0.125000 -0.756797
v -0.226467 -0.216506 -0.845185
v -0.258819 -0.250000 -0.965926
v -0.291171 -0.216506 -1.086667
v -0.314855 -0.125000 -1.175055
v -0.478354 0.000000 -1.154849
v -0.465537 0.125000 -1.123905
v -0.430519 0.216506 -1.039364
v -0.382684 0.250000 -0.923880
v -0.334848 0.216506 -0.808395
v -0.299830 0.125000 -0.723854
v -0.287013 0.000000 -0.692910
v -0.299830 -0.125000 -0.723854
v -0.334848 -0.216506 -0.808395
v -0.382684 -0.250000 -0.923880
v -0.430519 -0.216506 -1.039364
v -0.465537 -0.125000 -1.123905
v -0.625000 0.000000 -1.082532
v -0.608253 0.125000 -1.053526
v -0.562500 0.216506 -0.974279
v -0.500000 0.250000 -0.866026
v -0.437500 0.216506 -0.757772
v -0.391747 0.125000 -0.678525
v -0.375000 0.000000 -0.649519
v -0.391747 -0.125000 -0.678525
v -0.437500 -0.216506 -0.757772
v -0.500000 -0.250000 -0.866026
v -0.562500 -0.216506 -0.974279
v -0.608253 -0.125000 -1.053526
v -0.760952 0.000000 -0.991692
v -0.740562 0.125000 -0.965119
v -0.684857 0.216506 -0.892522
v -0.608761 0.250000 -0.793353
v -0.532666 0.216506 -0.694184
v -0.476961 0.125000 -0.621587
v -0.456571 0.000000 -0.595015
v -0.476961 -0.125000 -0.621587
v -0.532666 -0.216506 -0.694184
v -0.608761 -0.250000 -0.793353
v -0.684857 -0.216506 -0.892522
v -0.740562 -0.125000 -0.965119
v -0.883884 0.000000 -0.883883
v -0.860200 0.125000 -0.860200
v -0.795495 0.216506 -0.795495
v -0.707107 0.250000 -0.707107
v -0.618719 0.216506 -0.618718
v -0.554014 0.125000 -0.554013
v -0.530330 0.000000 -0.530330
v -0.554014 -0.125000 -0.554013
v -0.618719 -0.216506 -0.618718
v -0.707107 -0.250000 -0.707107
v -0.795495 -0.216506 -0.795495
v -0.860200 -0.125000 -0.860200
v -0.991692 0.000000 -0.760952
v -0.965119 0.125000 -0.740562
v -0.892522 0.216506 -0.684857
v -0.793353 0.250000 -0.608761
v -0.694184 0.216506 -0.532666
v -0.621587 0.125000 -0.476961
v -0.595015 0.000000 -0.456571
v -0.621587 -0.125000 -0.476961
v -0.694184 -0.216506 -0.532666
v -0.793353 -0.250000 -0.608761
v -0.892522 -0.216506 -0.684857
v -0.965119 -0.125000 -0.740562
v -1.082532 0.000000 -0.625000
v -1.053525 0.125000 -0.608253
v -0.974278 0.216506 -0.562500
v -0.866025 0.250000 -0.500000
v -0.757772 0.216506 -0.437500
v -0.678525 0.125000 -0.391747
v -0.649519 0.000000 -0.375000
v -0.678525 -0.125000 -0.391747
v -0.757772 -0.216506 -0.437500
v -0.866025 -0.250000 -0.500000
v -0.974278 -0.216506 -0.562500
v -1.053525 -0.125000 -0.608253
v -1.154849 0.000000 -0.478354
v -1.123905 0.125000 -0.465537
v -1.039364 0.216506 -0.430519
v -0.923880 0.250000 -0.382683
v -0.808395 0.216506 -0.334848
v -0.723854 0.125000 -0.299830
v -0.692910 0.000000 -0.287013
v -0.723854 -0.125000 -0.299830
v -0.808395 -0.216506 -0.334848
v -0.923880 -0.250000 -0.382683
v -1.039364 -0.216506 -0.430519
v -1.123905 -0.125000 -0.465537
v -1.207407 0.000000 -0.323524
v -1.175055 0.125000 -0.314855
v -1.086667 0.216506 -0.291171
v -0.965926 0.250000 -0.258819
v -0.845185 0.216506 -0.226467
v -0.756797 0.125000 -0.202783
v -0.724444 0.000000 -0.194114
v -0.756797 -0.125000 -0.202783
v -0.845185 -0.216506 -0.226467
v -0.965926 -0.250000 -0.258819
v -1.086667 -0.216506 -0.291171
v -1.175055 -0.125000 -0.314855
v -1.239306 0.000000 -0.163158
v -1.206099 0.125000 -0.158786
v -1.115375 0.216506 -0.146842
v -0.991445 0.250000 -0.130526
v -0.867514 0.216506 -0.114211
v -0.776791 0.125000 -0.102267
v -0.743584 0.000000 -0.097895
v -0.776791 -0.125000 -0.102267
v -0.867514 -0.216506 -0.114211
v -0.991445 -0.250000 -0.130526
v -1.115375 -0.216506 -0.146842
v -1.206099 -0.125000 -0.158786
v -1.250000 0.000000 -0.000000
v -1.216506 0.125000 -0.000000
v -1.125000 0.216506 -0.000000
v -1.000000 0.250000 -0.000000
v -0.875000 0.216506 -0.000000
v -0.783494 0.125000 -0.000000
v -0.750000 0.000000 -0.000000
v -0.783494 -0.125000 -0.000000
v -0.875000 -0.216506 -0.000000
v -1.000000 -0.250000 -0.000000
v -1.125000 -0.216506 -0.000000
v -1.216506 -0.125000 -0.000000
v -1.239306 0.000000 0.163158
v -1.206099 0.125000 0.158786
v -1.115375 0.216506 0.146842
v -0.991445 0.250000 0.130526
v -0.867514 0.216506 0.114211
v -0.776791 0.125000 0.102267
v -0.743584 0.000000 0.097895
v -0.776791 -0.125000 0.102267
v -0.867514 -0.216506 0.114211
v -0.991445 -0.250000 0.130526
v -1.115375 -0.216506 0.146842
v -1.206099 -0.125000 0.158786
v -1.207407 0.000000 0.323524
v -1.175055 0.125000 0.314855
v -1.086667 0.216506 0.291171
v -0.965926 0.250000 0.258819
v -0.845185 0.216506 0.226467
v -0.756797 0.125000 0.202783
v -0.724444 0.000000 0.194114
v -0.756797 -0.125000 0.202783
v -0.845185 -0.216506 0.226467
v -0.965926 -0.250000 0.258819
v -1.086667 -0.216506 0.291171
v -1.175055 -0.125000 0.314855
v -1.154850 0.000000 0.478354
v -1.123906 0.125000 0.465536
v -1.039365 0.216506 0.430518
v -0.923880 0.250000 0.382683
v -0.808395 0.216506 0.334848
v -0.723854 0.125000 0.299830
v -0.692910 0.000000 0.287012
v -0.723854 -0.125000 0.299830
v -0.808395 -0.216506 0.334848
v -0.923880 -0.250000 0.382683
v -1.039365 -0.216506 0.430518
v -1.123906 -0.125000 0.465536
v -1.082532 0.000000 0.625000
v -1.053526 0.125000 0.608253
v -0.974279 0.216506 0.562500
v -0.866026 0.250000 0.500000
v -0.757772 0.216506 0.437500
v -0.678525 0.125000 0.391747
v -0.649519 0.000000 0.375000
v -0.678525 -0.125000 0.391747
v -0.757772 -0.216506 0.437500
v -0.866026 -0.250000 0.500000
v -0.974279 -0.216506 0.562500
v -1.053526 -0.125000 0.608253
v -0.991692 0.000000 0.760952
v -0.965119 0.125000 0.740562
v -0.892522 0.216506 0.684857
v -0.793353 0.250000 0.608761
v -0.694184 0.216506 0.532666
v -0.621587 0.125000 0.476961
v -0.595015 0.000000 0.456571
v -0.621587 -0.125000 0.476961
v -0.694184 -0.216506 0.532666
v -0.793353 -0.250000 0.608761
v -0.892522 -0.216506 0.684857
v -0.965119 -0.125000 0.740562
v -0.883884 0.000000 0.883883
v -0.860200 0.125000 0.860200
v -0.795495 0.216506 0.795495
v -0.707107 0.250000 0.707107
v -0.618719 0.216506 0.618718
v -0.554014 0.125000 0.554013
v -0.530330 0.000000 0.530330
v -0.554014 -0.125000 0.554013
v -0.618719 -0.216506 0.618718
v -0.707107 -0.250000 0.707107
v -0.795495 -0.216506 0.795495
v -0.860200 -0.125000 0.860200
v -0.760952 0.000000 0.991691
v -0.740563 0.125000 0.965119
v -0.684857 0.216506 0.892522
v -0.608762 0.250000 0.793353
v -0.532667 0.216506 0.694184
v -0.476961 0.125000 0.621587
v -0.456571 0.000000 0.595015
v -0.476961 -0.125000 0.621587
v -0.532667 -0.216506 0.694184
v -0.608762 -0.250000 0.793353
v -0.684857 -0.216506 0.892522
v -0.740563 -0.125000 0.965119
v -0.625000 0.000000 1.082532
v -0.608253 0.125000 1.053526
v -0.562500 0.216506 0.974279
v -0.500000 0.250000 0.866026
v -0.437500 0.216506 0.757772
v -0.391747 0.125000 0.678525
v -0.375000 0.000000 0.649519
v -0.391747 -0.125000 0.678525
v -0.437500 -0.216506 0.757772
v -0.500000 -0.250000 0.866026
v -0.562500 -0.216506 0.974279
v -0.608253 -0.125000 1.053526
v -0.478354 0.000000 1.154849
v -0.465537 0.125000 1.123905
v -0.430519 0.216506 1.039364
v -0.382684 0.250000 0.923880
v -0.334848 0.216506 0.808395
v -0.299830 0.125000 0.723854
v -0.287013 0.000000 0.692910
v -0.299830 -0.125000 0.723854
v -0.334848 -0.216506 0.808395
v -0.382684 -0.250000 0.923880
v -0.430519 -0.216506 1.039364
v -0.465537 -0.125000 1.123905
v -0.323524 0.000000 1.207407
v -0.314855 0.125000 1.175055
v -0.291172 0.216506 1.086666
v -0.258819 0.250000 0.965926
v -0.226467 0.216506 0.845185
v -0.202783 0.125000 0.756797
v -0.194115 0.000000 0.724444
v -0.202783 -0.125000 0.756797
v -0.226467 -0.216506 0.845185
v -0.258819 -0.250000 0.965926
v -0.291172 -0.216506 1.086666
v -0.314855 -0.125000 1.175055
v -0.163158 0.000000 1.239306
v -0.158787 0.125000 1.206099
v -0.146843 0.216506 1.115375
v -0.130527 0.250000 0.991445
v -0.114211 0.216506 0.867514
v -0.102267 0.125000 0.776791
v -0.097895 0.000000 0.743584
v -0.102267 -0.125000 0.776791
v -0.114211 -0.216506 0.867514
v -0.130527 -0.250000 0.991445
v -0.146843 -0.216506 1.115375
v -0.158787 -0.125000 1.206099
v 0.000000 0.000000 1.250000
v 0.000000 0.125000 1.216506
v 0.000000 0.216506 1.125000
v 0.000000 0.250000 1.000000
v 0.000000 0.216506 0.875000
v 0.000000 0.125000 0.783494
v 0.000000 0.000000 0.750000
v 0.000000 -0.125000 0.783494
v 0.000000 -0.216506 0.875000
v 0.000000 -0.250000 1.000000
v 0.000000 -0.216506 1.125000
v 0.000000 -0.125000 1.216506
v 0.163158 0.000000 1.239306
v 0.158786 0.125000 1.206099
v 0.146842 0.216506 1.115376
v 0.130526 0.250000 0.991445
v 0.114210 0.216506 0.867514
v 0.102266 0.125000 0.776791
v 0.097895 0.000000 0.743584
v 0.102266 -0.125000 0.776791
v 0.114210 -0.216506 0.867514
v 0.130526 -0.250000 0.991445
v 0.146842 -0.216506 1.115376
v 0.158786 -0.125000 1.206099
v 0.323523 0.000000 1.207407
v 0.314854 0.125000 1.175055
v 0.291171 0.216506 1.086667
v 0.258819 0.250000 0.965926
v 0.226466 0.216506 0.845185
v 0.202783 0.125000 0.756797
v 0.194114 0.000000 0.724444
v 0.202783 -0.125000 0.756797
v 0.226466 -0.216506 0.845185
v 0.258819 -0.250000 0.965926
v 0.291171 -0.216506 1.086667
v 0.314854 -0.125000 1.175055
v 0.478355 0.000000 1.154849
v 0.465537 0.125000 1.123905
v 0.430519 0.216506 1.039364
v 0.382684 0.250000 0.923879
v 0.334848 0.216506 0.808394
v 0.299830 0.125000 0.723854
v 0.287013 0.000000 0.692910
v 0.299830 -0.125000 0.723854
v 0.334848 -0.216506 0.808394
v 0.382684 -0.250000 0.923879
v 0.430519 -0.216506 1.039364
v 0.465537 -0.125000 1.123905
v 0.625000 0.000000 1.082532
v 0.608253 0.125000 1.053525
v 0.562500 0.216506 0.974279
v 0.500000 0.250000 0.866025
v 0.437500 0.216506 0.757772
v 0.391747 0.125000 0.678525
v 0.375000 0.000000 0.649519
v 0.391747 -0.125000 0.678525
v 0.437500 -0.216506 0.757772
v 0.500000 -0.250000 0.866025
v 0.562500 -0.216506 0.974279
v 0.608253 -0.125000 1.053525
v 0.760952 0.000000 0.991692
v 0.740562 0.125000 0.965120
v 0.684856 0.216506 0.892523
v 0.608761 0.250000 0.793353
v 0.532666 0.216506 0.694184
v 0.476961 0.125000 0.621587
v 0.456571 0.000000 0.595015
v 0.476961 -0.125000 0.621587
v 0.532666 -0.216506 0.694184
v 0.608761 -0.250000 0.793353
v 0.684856 -0.216506 0.892523
v 0.740562 -0.125000 0.965120
v 0.883883 0.000000 0.883884
v 0.860199 0.125000 0.860200
v 0.795495 0.216506 0.795496
v 0.707106 0.250000 0.707107
v 0.618718 0.216506 0.618719
v 0.554013 0.125000 0.554014
v 0.530330 0.000000 0.530330
v 0.554013 -0.125000 0.554014
v 0.618718 -0.216506 0.618719
v 0.707106 -0.250000 0.707107
v 0.795495 -0.216506 0.795496
v 0.860199 -0.125000 0.860200
v 0.991692 0.000000 0.760952
v 0.965119 0.125000 0.740562
v 0.892523 0.216506 0.684856
v 0.793353 0.250000 0.608761
v 0.694184 0.216506 0.532666
v 0.621587 0.125000 0.476961
v 0.595015 0.000000 0.456571
v 0.621587 -0.125000 0.476961
v 0.694184 -0.216506 0.532666
v 0.793353 -0.250000 0.608761
v 0.892523 -0.216506 0.684856
v 0.965119 -0.125000 0.740562
v 1.082532 0.000000 0.625000
v 1.053525 0.125000 0.608253
v 0.974279 0.216506 0.562500
v 0.866025 0.250000 0.500000
v 0.757772 0.216506 0.437500
v 0.678525 0.125000 0.391747
v 0.649519 0.000000 0.375000
v 0.678525 -0.125000 0.391747
v 0.757772 -0.216506 0.437500
v 0.866025 -0.250000 0.500000
v 0.974279 -0.216506 0.562500
v 1.053525 -0.125000 0.608253
v 1.154849 0.000000 0.478355
v 1.123905 0.125000 0.465537
v 1.039364 0.216506 0.430519
v 0.923879 0.250000 0.382684
v 0.808394 0.216506 0.334848
v 0.723854 0.125000 0.299830
v 0.692910 0.000000 0.287013
v 0.723854 -0.125000 0.299830
v 0.808394 -0.216506 0.334848
v 0.923879 -0.250000 0.382684
v 1.039364 -0.216506 0.430519
v 1.123905 -0.125000 0.465537
v 1.207407 0.000000 0.323523
v 1.175055 0.125000 0.314855
v 1.086667 0.216506 0.291171
v 0.965926 0.250000 0.258819
v 0.845185 0.216506 0.226466
v 0.756797 0.125000 0.202783
v 0.724444 0.000000 0.194114
v 0.756797 -0.125000 0.202783
v 0.845185 -0.216506 0.226466
v 0.965926 -0.250000 0.258819
v 1.086667 -0.216506 0.291171
v 1.175055 -0.125000 0.314855
v 1.239306 0.000000 0.163158
v 1.206099 0.125000 0.158786
v 1.115376 0.216506 0.146842
v 0.991445 0.250000 0.130526
v 0.867514 0.216506 0.114210
v 0.776791 0.125000 0.102266
v 0.743584 0.000000 0.097895
v 0.776791 -0.125000 0.102266
v 0.867514 -0.216506 0.114210
v 0.991445 -0.250000 0.130526
v 1.115376 -0.216506 0.146842
v 1.206099 -0.125000 0.158786
vt 0.500000 0.500000
vt 0.520833 0.583333
vt 0.500000 0.583333
vt 0.520833 0.666667
vt 0.500000 0.666667
vt 0.520833 0.750000
vt 0.500000 0.750000
vt 0.520833 0.833333
vt 0.500000 0.833333
vt 0.500000 0.916667
vt 0.520833 1.000000
vt 0.500000 1.000000
vt 0.520833 0.000000
vt 0.500000 0.083333
vt 0.500000 0.000000
vt 0.520833 0.166667
vt 0.500000 0.166667
vt 0.500000 0.250000
vt 0.520833 0.250000
vt 0.500000 0.333333
vt 0.520833 0.333333
vt 0.500000 0.416667
vt 0.520833 0.416667
vt 0.541667 0.500000
vt 0.520833 0.500000
vt 0.541667 0.583333
vt 0.541667 0.666667
vt 0.541667 0.750000
vt 0.541667 0.833333
vt 0.520833 0.916667
vt 0.541667 1.000000
vt 0.541667 0.000000
vt 0.520833 0.083333
vt 0.541667 0.166667
vt 0.541667 0.250000
vt 0.541667 0.333333
vt 0.541667 0.416667
vt 0.562500 0.583333
vt 0.562500 0.666667
vt 0.562500 0.833333
vt 0.562500 0.916667
vt 0.541667 0.916667
vt 0.562500 1.000000
vt 0.562500 0.000000
vt 0.541667 0.083333
vt 0.562500 0.083333
vt 0.562500 0.166667
vt 0.562500 0.333333
vt 0.562500 0.416667
vt 0.562500 0.500000
vt 0.583333 0.583333
vt 0.583333 0.750000
vt 0.562500 0.750000
vt 0.583333 0.833333
vt 0.583333 0.916667
vt 0.583333 0.083333
vt 0.583333 0.250000
vt 0.562500 0.250000
vt 0.583333 0.416667
vt 0.604167 0.500000
vt 0.583333 0.500000
vt 0.604167 0.666667
vt 0.583333 0.666667
vt 0.604167 0.750000
vt 0.604167 0.916667
vt 0.583333 1.000000
vt 0.583333 0.000000
vt 0.604167 0.083333
vt 0.583333 0.166667
vt 0.604167 0.250000
vt 0.583333 0.333333
vt 0.604167 0.333333
vt 0.625000 0.500000
vt 0.604167 0.583333
vt 0.625000 0.583333
vt 0.625000 0.666667
vt 0.625000 0.750000
vt 0.604167 0.833333
vt 0.625000 0.916667
vt 0.604167 1.000000
vt 0.625000 0.000000
vt 0.604167 0.000000
vt 0.625000 0.083333
vt 0.604167 0.166667
vt 0.625000 0.250000
vt 0.625000 0.333333
vt 0.625000 0.416667
vt 0.604167 0.416667
vt 0.645833 0.583333
vt 0.645833 0.666667
vt 0.645833 0.750000
vt 0.625000 0.833333
vt 0.645833 0.833333
vt 0.645833 0.916667
vt 0.625000 1.000000
vt 0.645833 0.083333
vt 0.645833 0.166667
vt 0.625000 0.166667
vt 0.645833 0.250000
vt 0.645833 0.333333
vt 0.645833 0.416667
vt 0.645833 0.500000
vt 0.666667 0.583333
vt 0.666667 0.666667
vt 0.666667 0.750000
vt 0.666667 0.833333
vt 0.666667 0.916667
vt 0.666667 1.000000
vt 0.645833 1.000000
vt 0.666667 0.000000
vt 0.645833 0.000000
vt 0.666667 0.083333
vt 0.666667 0.166667
vt 0.666667 0.250000
vt 0.666667 0.333333
vt 0.666667 0.416667
vt 0.687500 0.500000
vt 0.666667 0.500000
vt 0.687500 0.583333
vt 0.687500 0.666667
vt 0.687500 0.750000
vt 0.687500 0.833333
vt 0.687500 0.916667
vt 0.687500 0.083333
vt 0.687500 0.166667
vt 0.687500 0.250000
vt 0.687500 0.333333
vt 0.687500 0.416667
vt 0.708333 0.500000
vt 0.708333 0.666667
vt 0.708333 0.750000
vt 0.708333 0.916667
vt 0.687500 1.000000
vt 0.687500 0.000000
vt 0.708333 0.083333
vt 0.708333 0.166667
vt 0.708333 0.250000
vt 0.708333 0.333333
vt 0.729167 0.500000
vt 0.708333 0.583333
vt 0.729167 0.666667
vt 0.729167 0.750000
vt 0.708333 0.833333
vt 0.729167 0.833333
vt 0.729167 0.916667
vt 0.708333 1.000000
vt 0.708333 0.000000
vt 0.729167 0.083333
vt 0.729167 0.166667
vt 0.729167 0.250000
vt 0.729167 0.333333
vt 0.708333 0.416667
vt 0.750000 0.500000
vt 0.729167 0.583333
vt 0.750000 0.583333
vt 0.750000 0.666667
vt 0.750000 0.833333
vt 0.750000 0.916667
vt 0.729167 1.000000
vt 0.750000 0.000000
vt 0.729167 0.000000
vt 0.750000 0.083333
vt 0.750000 0.166667
vt 0.750000 0.333333
vt 0.729167 0.416667
vt 0.750000 0.416667
vt 0.770833 0.500000
vt 0.770833 0.583333
vt 0.770833 0.666667
vt 0.750000 0.750000
vt 0.770833 0.750000
vt 0.770833 0.916667
vt 0.750000 1.000000
vt 0.770833 0.000000
vt 0.770833 0.083333
vt 0.770833 0.250000
vt 0.750000 0.250000
vt 0.770833 0.333333
vt 0.770833 0.416667
vt 0.791667 0.583333
vt 0.791667 0.666667
vt 0.791667 0.750000
vt 0.791667 0.833333
vt 0.770833 0.833333
vt 0.791667 0.916667
vt 0.770833 1.000000
vt 0.791667 0.083333
vt 0.770833 0.166667
vt 0.791667 0.166667
vt 0.791667 0.250000
vt 0.791667 0.333333
vt 0.791667 0.416667
vt 0.812500 0.500000
vt 0.791667 0.500000
vt 0.812500 0.583333
vt 0.812500 0.750000
vt 0.812500 0.833333
vt 0.812500 0.916667
vt 0.791667 1.000000
vt 0.791667 0.000000
vt 0.812500 0.083333
vt 0.812500 0.166667
vt 0.812500 0.250000
vt 0.812500 0.416667
vt 0.833333 0.500000
vt 0.833333 0.583333
vt 0.812500 0.666667
vt 0.833333 0.666667
vt 0.833333 0.833333
vt 0.833333 0.916667
vt 0.833333 1.000000
vt 0.812500 1.000000
vt 0.833333 0.000000
vt 0.812500 0.000000
vt 0.833333 0.083333
vt 0.833333 0.166667
vt 0.833333 0.333333
vt 0.812500 0.333333
vt 0.833333 0.416667
vt 0.854167 0.500000
vt 0.854167 0.583333
vt 0.854167 0.666667
vt 0.833333 0.750000
vt 0.854167 0.750000
vt 0.854167 0.833333
vt 0.854167 1.000000
vt 0.854167 0.000000
vt 0.854167 0.166667
vt 0.854167 0.250000
vt 0.833333 0.250000
vt 0.854167 0.333333
vt 0.854167 0.416667
vt 0.875000 0.583333
vt 0.875000 0.750000
vt 0.875000 0.833333
vt 0.854167 0.916667
vt 0.875000 1.000000
vt 0.875000 0.000000
vt 0.854167 0.083333
vt 0.875000 0.166667
vt 0.875000 0.250000
vt 0.875000 0.333333
vt 0.875000 0.416667
vt 0.875000 0.500000
vt 0.895833 0.583333
vt 0.875000 0.666667
vt 0.895833 0.666667
vt 0.895833 0.833333
vt 0.895833 0.916667
vt 0.875000 0.916667
vt 0.895833 1.000000
vt 0.895833 0.000000
vt 0.875000 0.083333
vt 0.895833 0.083333
vt 0.895833 0.166667
vt 0.895833 0.333333
vt 0.895833 0.416667
vt 0.895833 0.500000
vt 0.916667 0.583333
vt 0.916667 0.750000
vt 0.895833 0.750000
vt 0.916667 0.833333
vt 0.916667 0.916667
vt 0.916667 0.083333
vt 0.916667 0.166667
vt 0.895833 0.250000
vt 0.916667 0.250000
vt 0.916667 0.416667
vt 0.916667 0.500000
vt 0.937500 0.583333
vt 0.916667 0.666667
vt 0.937500 0.750000
vt 0.937500 0.833333
vt 0.937500 0.916667
vt 0.916667 1.000000
vt 0.916667 0.000000
vt 0.937500 0.083333
vt 0.937500 0.166667
vt 0.937500 0.250000
vt 0.916667 0.333333
vt 0.937500 0.416667
vt 0.958333 0.500000
vt 0.937500 0.500000
vt 0.958333 0.666667
vt 0.937500 0.666667
vt 0.958333 0.833333
vt 0.958333 0.916667
vt 0.958333 1.000000
vt 0.937500 1.000000
vt 0.958333 0.000000
vt 0.937500 0.000000
vt 0.958333 0.083333
vt 0.958333 0.166667
vt 0.958333 0.250000
vt 0.937500 0.333333
vt 0.958333 0.333333
vt 0.958333 0.416667
vt 0.979167 0.500000
vt 0.958333 0.583333
vt 0.979167 0.583333
vt 0.979167 0.666667
vt 0.958333 0.750000
vt 0.979167 0.750000
vt 0.979167 0.833333
vt 0.979167 1.000000
vt 0.979167 0.000000
vt 0.979167 0.166667
vt 0.979167 0.250000
vt 0.979167 0.333333
vt 0.979167 0.416667
vt 1.000000 0.583333
vt 1.000000 0.666667
vt 1.000000 0.750000
vt 1.000000 0.833333
vt 0.979167 0.916667
vt 1.000000 0.916667
vt 1.000000 0.000000
vt 0.979167 0.083333
vt 1.000000 0.166667
vt 1.000000 0.250000
vt 1.000000 0.333333
vt 1.000000 0.416667
vt 0.020833 0.500000
vt 0.000000 0.583333
vt 0.000000 0.500000
vt 0.020833 0.583333
vt 0.000000 0.666667
vt 0.020833 0.666667
vt 0.000000 0.750000
vt 0.020833 0.750000
vt 0.000000 0.833333
vt 0.020833 0.916667
vt 0.000000 0.916667
vt 0.000000 1.000000
vt 0.020833 0.000000
vt 0.000000 0.083333
vt 0.000000 0.000000
vt 0.020833 0.083333
vt 0.000000 0.166667
vt 0.020833 0.250000
vt 0.000000 0.250000
vt 0.020833 0.333333
vt 0.000000 0.333333
vt 0.020833 0.416667
vt 0.000000 0.416667
vt 0.041667 0.583333
vt 0.041667 0.666667
vt 0.041667 0.750000
vt 0.041667 0.833333
vt 0.020833 0.833333
vt 0.041667 0.916667
vt 0.020833 1.000000
vt 0.041667 0.083333
vt 0.020833 0.166667
vt 0.041667 0.166667
vt 0.041667 0.250000
vt 0.041667 0.333333
vt 0.041667 0.416667
vt 0.062500 0.500000
vt 0.041667 0.500000
vt 0.062500 0.583333
vt 0.062500 0.750000
vt 0.062500 0.833333
vt 0.062500 0.916667
vt 0.041667 1.000000
vt 0.041667 0.000000
vt 0.062500 0.083333
vt 0.062500 0.166667
vt 0.062500 0.250000
vt 0.062500 0.416667
vt 0.083333 0.500000
vt 0.083333 0.583333
vt 0.062500 0.666667
vt 0.083333 0.666667
vt 0.083333 0.750000
vt 0.083333 0.833333
vt 0.083333 1.000000
vt 0.062500 1.000000
vt 0.083333 0.000000
vt 0.062500 0.000000
vt 0.083333 0.166667
vt 0.083333 0.333333
vt 0.062500 0.333333
vt 0.083333 0.416667
vt 0.104167 0.500000
vt 0.104167 0.583333
vt 0.104167 0.666667
vt 0.104167 0.750000
vt 0.104167 0.916667
vt 0.083333 0.916667
vt 0.104167 1.000000
vt 0.104167 0.000000
vt 0.083333 0.083333
vt 0.104167 0.083333
vt 0.104167 0.166667
vt 0.083333 0.250000
vt 0.104167 0.333333
vt 0.104167 0.416667
vt 0.125000 0.500000
vt 0.125000 0.666667
vt 0.125000 0.750000
vt 0.104167 0.833333
vt 0.125000 0.833333
vt 0.125000 0.916667
vt 0.125000 0.083333
vt 0.125000 0.166667
vt 0.125000 0.250000
vt 0.104167 0.250000
vt 0.125000 0.333333
vt 0.145833 0.500000
vt 0.125000 0.583333
vt 0.145833 0.666667
vt 0.145833 0.750000
vt 0.145833 0.833333
vt 0.145833 0.916667
vt 0.125000 1.000000
vt 0.145833 0.000000
vt 0.125000 0.000000
vt 0.145833 0.083333
vt 0.145833 0.166667
vt 0.145833 0.250000
vt 0.145833 0.333333
vt 0.125000 0.416667
vt 0.145833 0.416667
vt 0.166667 0.583333
vt 0.145833 0.583333
vt 0.166667 0.750000
vt 0.166667 0.833333
vt 0.166667 0.916667
vt 0.145833 1.000000
vt 0.166667 0.083333
vt 0.166667 0.166667
vt 0.166667 0.250000
vt 0.166667 0.333333
vt 0.166667 0.416667
vt 0.187500 0.500000
vt 0.166667 0.500000
vt 0.187500 0.583333
vt 0.166667 0.666667
vt 0.187500 0.750000
vt 0.187500 0.833333
vt 0.187500 0.916667
vt 0.166667 1.000000
vt 0.166667 0.000000
vt 0.187500 0.083333
vt 0.187500 0.166667
vt 0.187500 0.250000
vt 0.187500 0.333333
vt 0.187500 0.416667
vt 0.208333 0.583333
vt 0.187500 0.666667
vt 0.208333 0.666667
vt 0.208333 0.833333
vt 0.208333 0.916667
vt 0.187500 1.000000
vt 0.208333 0.000000
vt 0.187500 0.000000
vt 0.208333 0.083333
vt 0.208333 0.166667
vt 0.208333 0.333333
vt 0.208333 0.416667
vt 0.208333 0.500000
vt 0.229167 0.583333
vt 0.229167 0.666667
vt 0.208333 0.750000
vt 0.229167 0.750000
vt 0.229167 0.916667
vt 0.208333 1.000000
vt 0.229167 0.083333
vt 0.229167 0.250000
vt 0.208333 0.250000
vt 0.229167 0.333333
vt 0.229167 0.416667
vt 0.250000 0.500000
vt 0.229167 0.500000
vt 0.250000 0.583333
vt 0.250000 0.666667
vt 0.250000 0.833333
vt 0.229167 0.833333
vt 0.250000 1.000000
vt 0.229167 1.000000
vt 0.250000 0.000000
vt 0.229167 0.000000
vt 0.250000 0.083333
vt 0.229167 0.166667
vt 0.250000 0.166667
vt 0.250000 0.250000
vt 0.250000 0.416667
vt 0.270833 0.500000
vt 0.270833 0.583333
vt 0.270833 0.750000
vt 0.250000 0.750000
vt 0.270833 0.833333
vt 0.250000 0.916667
vt 0.270833 0.916667
vt 0.270833 0.000000
vt 0.270833 0.166667
vt 0.270833 0.250000
vt 0.250000 0.333333
vt 0.270833 0.333333
vt 0.270833 0.416667
vt 0.291667 0.500000
vt 0.291667 0.583333
vt 0.270833 0.666667
vt 0.291667 0.666667
vt 0.291667 0.750000
vt 0.291667 0.916667
vt 0.270833 1.000000
vt 0.291667 0.000000
vt 0.270833 0.083333
vt 0.291667 0.083333
vt 0.291667 0.250000
vt 0.291667 0.333333
vt 0.291667 0.416667
vt 0.312500 0.500000
vt 0.312500 0.583333
vt 0.312500 0.666667
vt 0.312500 0.833333
vt 0.291667 0.833333
vt 0.312500 1.000000
vt 0.291667 1.000000
vt 0.312500 0.000000
vt 0.312500 0.083333
vt 0.291667 0.166667
vt 0.312500 0.166667
vt 0.312500 0.250000
vt 0.312500 0.416667
vt 0.333333 0.500000
vt 0.333333 0.666667
vt 0.333333 0.750000
vt 0.312500 0.750000
vt 0.333333 0.833333
vt 0.333333 0.916667
vt 0.312500 0.916667
vt 0.333333 1.000000
vt 0.333333 0.000000
vt 0.333333 0.083333
vt 0.333333 0.166667
vt 0.333333 0.250000
vt 0.312500 0.333333
vt 0.333333 0.333333
vt 0.333333 0.416667
vt 0.354167 0.583333
vt 0.333333 0.583333
vt 0.354167 0.666667
vt 0.354167 0.750000
vt 0.354167 0.833333
vt 0.354167 0.916667
vt 0.354167 0.083333
vt 0.354167 0.166667
vt 0.354167 0.250000
vt 0.354167 0.333333
vt 0.354167 0.416667
vt 0.354167 0.500000
vt 0.375000 0.583333
vt 0.375000 0.750000
vt 0.375000 0.833333
vt 0.375000 0.916667
vt 0.375000 1.000000
vt 0.354167 1.000000
vt 0.375000 0.000000
vt 0.354167 0.000000
vt 0.375000 0.083333
vt 0.375000 0.166667
vt 0.375000 0.250000
vt 0.375000 0.333333
vt 0.375000 0.416667
vt 0.375000 0.500000
vt 0.395833 0.583333
vt 0.375000 0.666667
vt 0.395833 0.750000
vt 0.395833 0.833333
vt 0.395833 1.000000
vt 0.395833 0.000000
vt 0.395833 0.166667
vt 0.395833 0.250000
vt 0.395833 0.416667
vt 0.395833 0.500000
vt 0.416667 0.583333
vt 0.395833 0.666667
vt 0.416667 0.666667
vt 0.416667 0.833333
vt 0.395833 0.916667
vt 0.416667 1.000000
vt 0.416667 0.000000
vt 0.395833 0.083333
vt 0.416667 0.166667
vt 0.416667 0.250000
vt 0.395833 0.333333
vt 0.416667 0.416667
vt 0.416667 0.500000
vt 0.437500 0.583333
vt 0.437500 0.666667
vt 0.437500 0.750000
vt 0.416667 0.750000
vt 0.437500 0.833333
vt 0.416667 0.916667
vt 0.437500 1.000000
vt 0.437500 0.000000
vt 0.416667 0.083333
vt 0.437500 0.083333
vt 0.437500 0.166667
vt 0.437500 0.250000
vt 0.416667 0.333333
vt 0.437500 0.333333
vt 0.437500 0.416667
vt 0.458333 0.500000
vt 0.437500 0.500000
vt 0.458333 0.583333
vt 0.458333 0.666667
vt 0.458333 0.750000
vt 0.458333 0.833333
vt 0.437500 0.916667
vt 0.458333 0.916667
vt 0.458333 0.083333
vt 0.458333 0.166667
vt 0.458333 0.333333
vt 0.479167 0.500000
vt 0.479167 0.666667
vt 0.479167 0.750000
vt 0.479167 0.833333
vt 0.479167 0.916667
vt 0.479167 1.000000
vt 0.458333 1.000000
vt 0.479167 0.000000
vt 0.458333 0.000000
vt 0.479167 0.083333
vt 0.479167 0.166667
vt 0.458333 0.250000
vt 0.479167 0.250000
vt 0.479167 0.333333
vt 0.458333 0.416667
vt 0.479167 0.416667
vt 0.479167 0.583333
vt 1.000000 0.500000
vt 1.000000 1.000000
vt 1.000000 0.083333
vn 0.9640 0.2583 -0.0632
vn 0.7063 0.7063 -0.0463
vn 0.2588 0.9658 -0.0170
vn -0.2588 0.9658 0.0170
vn -0.7063 0.7063 0.0463
vn -0.9640 0.2583 0.0632
vn -0.9640 -0.2583 0.0632
vn -0.7063 -0.7063 0.0463
vn -0.2588 -0.9658 0.0170
vn 0.2588 -0.9658 -0.0170
vn 0.7063 -0.7063 -0.0463
vn 0.9640 -0.2583 -0.0632
vn 0.9475 0.2583 -0.1885
vn 0.6943 0.7063 -0.1381
vn 0.2544 0.9658 -0.0506
vn -0.2544 0.9658 0.0506
vn -0.6943 0.7063 0.1381
vn -0.9475 0.2583 0.1885
vn -0.9475 -0.2583 0.1885
vn -0.6943 -0.7063 0.1381
vn -0.2544 -0.9658 0.0506
vn 0.2544 -0.9658 -0.0506
vn 0.6943 -0.7063 -0.1381
vn 0.9475 -0.2583 -0.1885
vn 0.9148 0.2583 -0.3105
vn 0.6703 0.7063 -0.2275
vn 0.2456 0.9658 -0.0834
vn -0.2456 0.9658 0.0834
vn -0.6703 0.7063 0.2275
vn -0.9148 0.2583 0.3105
vn -0.9148 -0.2583 0.3105
vn -0.6703 -0.7063 0.2275
vn -0.2456 -0.9658 0.0834
vn 0.2456 -0.9658 -0.0834
vn 0.6703 -0.7063 -0.2275
vn 0.9148 -0.2583 -0.3105
vn 0.8664 0.2583 -0.4273
vn 0.6349 0.7063 -0.3131
vn 0.2326 0.9658 -0.1147
vn -0.2326 0.9658 0.1147
vn -0.6349 0.7063 0.3131
vn -0.8664 0.2583 0.4273
vn -0.8664 -0.2583 0.4273
vn -0.6349 -0.7063 0.3131
vn -0.2326 -0.9658 0.1147
vn 0.2326 -0.9658 -0.1147
vn 0.6349 -0.7063 -0.3131
vn 0.8664 -0.2583 -0.4273
vn 0.8033 0.2583 -0.5367
vn 0.5886 0.7063 -0.3933
vn 0.2156 0.9658 -0.1441
vn -0.2156 0.9658 0.1441
vn -0.5886 0.7063 0.3933
vn -0.8033 0.2583 0.5367
vn -0.8033 -0.2583 0.5367
vn -0.5886 -0.7063 0.3933
vn -0.2156 -0.9658 0.1441
vn 0.2156 -0.9658 -0.1441
vn 0.5886 -0.7063 -0.3933
vn 0.8033 -0.2583 -0.5367
vn 0.7263 0.2583 -0.6370
vn 0.5322 0.7063 -0.4667
vn 0.1950 0.9658 -0.1710
vn -0.1950 0.9658 0.1710
vn -0.5322 0.7063 0.4667
vn -0.7263 0.2583 0.6370
vn -0.7263 -0.2583 0.6370
vn -0.5322 -0.7063 0.4667
vn -0.1950 -0.9658 0.1710
vn 0.1950 -0.9658 -0.1710
vn 0.5322 -0.7063 -0.4667
vn 0.7263 -0.2583 -0.6370
vn 0.6370 0.2583 -0.7263
vn 0.4667 0.7063 -0.5322
vn 0.1710 0.9658 -0.1950
vn -0.1710 0.9658 0.1950
vn -0.4667 0.7063 0.5322
vn -0.6370 0.2583 0.7263
vn -0.6370 -0.2583 0.7263
vn -0.4667 -0.7063 0.5322
vn -0.1710 -0.9658 0.1950
vn 0.1710 -0.9658 -0.1950
vn 0.4667 -0.7063 -0.5322
vn 0.6370 -0.2583 -0.7263
vn 0.5367 0.2583 -0.8033
vn 0.3933 0.7063 -0.5886
vn 0.1441 0.9658 -0.2156
vn -0.1441 0.9658 0.2156
vn -0.3933 0.7063 0.5886
vn -0.5367 0.2583 0.8033
vn -0.5367 -0.2583 0.8033
vn -0.3933 -0.7063 0.5886
vn -0.1441 -0.9658 0.2156
vn 0.1441 -0.9658 -0.2156
vn 0.3933 -0.7063 -0.5886
vn 0.5367 -0.2583 -0.8033
vn 0.4273 0.2583 -0.8664
vn 0.3131 0.7063 -0.6349
vn 0.1147 0.9658 -0.2326
vn -0.1147 0.9658 0.2326
vn -0.3131 0.7063 0.6349
vn -0.4273 0.2583 0.8664
vn -0.4273 -0.2583 0.8664
vn -0.3131 -0.7063 0.6349
vn -0.1147 -0.9658 0.2326
vn 0.1147 -0.9658 -0.2326
vn 0.3131 -0.7063 -0.6349
vn 0.4273 -0.2583 -0.8664
vn 0.3105 0.2583 -0.9148
vn 0.2275 0.7063 -0.6703
vn 0.0834 0.9658 -0.2456
vn -0.0834 0.9658 0.2456
vn -0.2275 0.7063 0.6703
vn -0.3105 0.2583 0.9148
vn -0.3105 -0.2583 0.9148
vn -0.2275 -0.7063 0.6703
vn -0.0834 -0.9658 0.2456
vn 0.0834 -0.9658 -0.2456
vn 0.2275 -0.7063 -0.6703
vn 0.3105 -0.2583 -0.9148
vn 0.1885 0.2583 -0.9475
vn 0.1381 0.7063 -0.6943
vn 0.0506 0.9658 -0.2544
vn -0.0506 0.9658 0.2544
vn -0.1381 0.7063 0.6943
vn -0.1885 0.2583 0.9475
vn -0.1885 -0.2583 0.9475
vn -0.1381 -0.7063 0.6943
vn -0.0506 -0.9658 0.2544
vn 0.0506 -0.9658 -0.2544
vn 0.1381 -0.7063 -0.6943
vn 0.1885 -0.2583 -0.9475
vn 0.0632 0.2583 -0.9640
vn 0.0463 0.7063 -0.7063
vn 0.0170 0.9658 -0.2588
vn -0.0170 0.9658 0.2588
vn -0.0463 0.7063 0.7063
vn -0.0632 0.2583 0.9640
vn -0.0632 -0.2583 0.9640
vn -0.0463 -0.7063 0.7063
vn -0.0170 -0.9658 0.2588
vn 0.0170 -0.9658 -0.2588
vn 0.0463 -0.7063 -0.7063
vn 0.0632 -0.2583 -0.9640
vn -0.0632 0.2583 -0.9640
vn -0.0463 0.7063 -0.7063
vn -0.0170 0.9658 -0.2588
vn 0.0170 0.9658 0.2588
vn 0.0463 0.7063 0.7063
vn 0.0632 0.2583 0.9640
vn 0.0632 -0.2583 0.9640
vn 0.0463 -0.7063 0.7063
vn 0.0170 -0.9658 0.2588
vn -0.0170 -0.9658 -0.2588
vn -0.0463 -0.7063 -0.7063
vn -0.0632 -0.2583 -0.9640
vn -0.1885 0.2583 -0.9475
vn -0.1381 0.7063 -0.6943
vn -0.0506 0.9658 -0.2544
vn 0.0506 0.9658 0.2544
vn 0.1381 0.7063 0.6943
vn 0.1885 0.2583 0.9475
vn 0.1885 -0.2583 0.9475
vn 0.1381 -0.7063 0.6943
vn 0.0506 -0.9658 0.2544
vn -0.0506 -0.9658 -0.2544
vn -0.1381 -0.7063 -0.6943
vn -0.1885 -0.2583 -0.9475
vn -0.3105 0.2583 -0.9148
vn -0.2275 0.7063 -0.6703
vn -0.0834 0.9658 -0.2456
vn 0.0834 0.9658 0.2456
vn 0.2275 0.7063 0.6703
vn 0.3105 0.2583 0.9148
vn 0.3105 -0.2583 0.9148
vn 0.2275 -0.7063 0.6703
vn 0.0834 -0.9658 0.2456
vn -0.0834 -0.9658 -0.2456
vn -0.2275 -0.7063 -0.6703
vn -0.3105 -0.2583 -0.9148
vn -0.4273 0.2583 -0.8664
vn -0.3131 0.7063 -0.6349
vn -0.1147 0.9658 -0.2326
vn 0.1147 0.9658 0.2326
vn 0.3131 0.7063 0.6349
vn 0.4273 0.2583 0.8664
vn 0.4273 -0.2583 0.8664
vn 0.3131 -0.7063 0.6349
vn 0.1147 -0.9658 0.2326
vn -0.1147 -0.9658 -0.2326
vn -0.3131 -0.7063 -0.6349
vn -0.4273 -0.2583 -0.8664
vn -0.5367 0.2583 -0.8033
vn -0.3933 0.7063 -0.5886
vn -0.1441 0.9658 -0.2156
vn 0.1441 0.9658 0.2156
vn 0.3933 0.7063 0.5886
vn 0.5367 0.2583 0.8033
vn 0.5367 -0.2583 0.8033
vn 0.3933 -0.7063 0.5886
vn 0.1441 -0.9658 0.2156
vn -0.1441 -0.9658 -0.2156
vn -0.3933 -0.7063 -0.5886
vn -0.5367 -0.2583 -0.8033
vn -0.6370 0.2583 -0.7263
vn -0.4667 0.7063 -0.5322
vn -0.1710 0.9658 -0.1950
vn 0.1710 0.9658 0.1950
vn 0.4667 0.7063 0.5322
vn 0.6370 0.2583 0.7263
vn 0.6370 -0.2583 0.7263
vn 0.4667 -0.7063 0.5322
vn 0.1710 -0.9658 0.1950
vn -0.1710 -0.9658 -0.1950
vn -0.4667 -0.7063 -0.5322
vn -0.6370 -0.2583 -0.7263
vn -0.7263 0.2583 -0.6370
vn -0.5322 0.7063 -0.4667
vn -0.1950 0.9658 -0.1710
vn 0.1950 0.9658 0.1710
vn 0.5322 0.7063 0.4667
vn 0.7263 0.2583 0.6370
vn 0.7263 -0.2583 0.6370
vn 0.5322 -0.7063 0.4667
vn 0.1950 -0.9658 0.1710
vn -0.1950 -0.9658 -0.1710
vn -0.5322 -0.7063 -0.4667
vn -0.7263 -0.2583 -0.6370
vn -0.8033 0.2583 -0.5367
vn -0.5886 0.7063 -0.3933
vn -0.2156 0.9658 -0.1441
vn 0.2156 0.9658 0.1441
vn 0.5886 0.7063 0.3933
vn 0.8033 0.2583 0.5367
vn 0.8033 -0.2583 0.5367
vn 0.5886 -0.7063 0.3933
vn 0.2156 -0.9658 0.1441
vn -0.2156 -0.9658 -0.1441
vn -0.5886 -0.7063 -0.3933
vn -0.8033 -0.2583 -0.5367
vn -0.8664 0.2583 -0.4273
vn -0.6349 0.7063 -0.3131
vn -0.2326 0.9658 -0.1147
vn 0.2326 0.9658 0.1147
vn 0.6349 0.7063 0.3131
vn 0.8664 0.2583 0.4273
vn 0.8664 -0.2583 0.4273
vn 0.6349 -0.7063 0.3131
vn 0.2326 -0.9658 0.1147
vn -0.2326 -0.9658 -0.1147
vn -0.6349 -0.7063 -0.3131
vn -0.8664 -0.2583 -0.4273
vn -0.9148 0.2583 -0.3105
vn -0.6703 0.7063 -0.2275
vn -0.2456 0.9658 -0.0834
vn 0.2456 0.9658 0.0834
vn 0.6703 0.7063 0.2275
vn 0.9148 0.2583 0.3105
vn 0.9148 -0.2583 0.3105
vn 0.6703 -0.7063 0.2275
vn 0.2456 -0.9658 0.0834
vn -0.2456 -0.9658 -0.0834
vn -0.6703 -0.7063 -0.2275
vn -0.9148 -0.2583 -0.3105
vn -0.9475 0.2583 -0.1885
vn -0.6943 0.7063 -0.1381
vn -0.2544 0.9658 -0.0506
vn 0.2544 0.9658 0.0506
vn 0.6943 0.7063 0.1381
vn 0.9475 0.2583 0.1885
vn 0.9475 -0.2583 0.1885
vn 0.6943 -0.7063 0.1381
vn 0.2544 -0.9658 0.0506
vn -0.2544 -0.9658 -0.0506
vn -0.6943 -0.7063 -0.1381
vn -0.9475 -0.2583 -0.1885
vn -0.9640 0.2583 -0.0632
vn -0.7063 0.7063 -0.0463
vn -0.2588 0.9658 -0.0170
vn 0.2588 0.9658 0.0170
vn 0.7063 0.7063 0.0463
vn 0.9640 0.2583 0.0632
vn 0.9640 -0.2583 0.0632
vn 0.7063 -0.7063 0.0463
vn 0.2588 -0.9658 0.0170
vn -0.2588 -0.9658 -0.0170
vn -0.7063 -0.7063 -0.0463
vn -0.9640 -0.2583 -0.0632
usemtl None
s off
f 1/1/1 14/2/1 2/3/1
f 2/3/2 15/4/2 3/5/2
f 3/5/3 16/6/3 4/7/3
f 4/7/4 17/8/4 5/9/4
f 17/8/5 6/10/5 5/9/5
f 6/10/6 19/11/6 7/12/6
f 19/13/7 8/14/7 7/15/7
f 8/14/8 21/16/8 9/17/8
f 21/16/9 10/18/9 9/17/9
f 22/19/10 11/20/10 10/18/10
f 23/21/11 12/22/11 11/20/11
f 24/23/12 1/1/12 12/22/12
f 25/24/13 14/2/13 13/25/13
f 26/26/14 15/4/14 14/2/14
f 27/27/15 16/6/15 15/4/15
f 28/28/16 17/8/16 16/6/16
f 29/29/17 18/30/17 17/8/17
f 18/30/18 31/31/18 19/11/18
f 31/32/19 20/33/19 19/13/19
f 20/33/20 33/34/20 21/16/20
f 21/16/21 34/35/21 22/19/21
f 22/19/22 35/36/22 23/21/22
f 23/21/23 36/37/23 24/23/23
f 24/23/24 25/24/24 13/25/24
f 25/24/25 38/38/25 26/26/25
f 38/38/26 27/27/26 26/26/26
f 39/39/27 28/28/27 27/27/27
f 28/28/28 41/40/28 29/29/28
f 29/29/29 42/41/29 30/42/29
f 30/42/30 43/43/30 31/31/30
f 43/44/31 32/45/31 31/32/31
f 44/46/32 33/34/32 32/45/32
f 45/47/33 34/35/33 33/34/33
f 34/35/34 47/48/34 35/36/34
f 47/48/35 36/37/35 35/36/35
f 48/49/36 25/24/36 36/37/36
f 37/50/37 50/51/37 38/38/37
f 50/51/38 39/39/38 38/38/38
f 39/39/39 52/52/39 40/53/39
f 52/52/40 41/40/40 40/53/40
f 53/54/41 42/41/41 41/40/41
f 54/55/42 43/43/42 42/41/42
f 43/44/43 56/56/43 44/46/43
f 56/56/44 45/47/44 44/46/44
f 45/47/45 58/57/45 46/58/45
f 58/57/46 47/48/46 46/58/46
f 47/48/47 60/59/47 48/49/47
f 60/59/48 37/50/48 48/49/48
f 61/60/49 50/51/49 49/61/49
f 50/51/50 63/62/50 51/63/50
f 63/62/51 52/52/51 51/63/51
f 64/64/52 53/54/52 52/52/52
f 53/54/53 66/65/53 54/55/53
f 66/65/54 55/66/54 54/55/54
f 55/67/55 68/68/55 56/56/55
f 68/68/56 57/69/56 56/56/56
f 57/69/57 70/70/57 58/57/57
f 70/70/58 59/71/58 58/57/58
f 71/72/59 60/59/59 59/71/59
f 60/59/60 61/60/60 49/61/60
f 73/73/61 62/74/61 61/60/61
f 74/75/62 63/62/62 62/74/62
f 75/76/63 64/64/63 63/62/63
f 76/77/64 65/78/64 64/64/64
f 65/78/65 78/79/65 66/65/65
f 78/79/66 67/80/66 66/65/66
f 79/81/67 68/68/67 67/82/67
f 80/83/68 69/84/68 68/68/68
f 69/84/69 82/85/69 70/70/69
f 70/70/70 83/86/70 71/72/70
f 71/72/71 84/87/71 72/88/71
f 72/88/72 73/73/72 61/60/72
f 73/73/73 86/89/73 74/75/73
f 74/75/74 87/90/74 75/76/74
f 87/90/75 76/77/75 75/76/75
f 88/91/76 77/92/76 76/77/76
f 89/93/77 78/79/77 77/92/77
f 90/94/78 79/95/78 78/79/78
f 79/81/79 92/96/79 80/83/79
f 80/83/80 93/97/80 81/98/80
f 81/98/81 94/99/81 82/85/81
f 82/85/82 95/100/82 83/86/82
f 95/100/83 84/87/83 83/86/83
f 96/101/84 73/73/84 84/87/84
f 85/102/85 98/103/85 86/89/85
f 86/89/86 99/104/86 87/90/86
f 87/90/87 100/105/87 88/91/87
f 88/91/88 101/106/88 89/93/88
f 89/93/89 102/107/89 90/94/89
f 90/94/90 103/108/90 91/109/90
f 103/110/91 92/96/91 91/111/91
f 104/112/92 93/97/92 92/96/92
f 105/113/93 94/99/93 93/97/93
f 106/114/94 95/100/94 94/99/94
f 107/115/95 96/101/95 95/100/95
f 108/116/96 85/102/96 96/101/96
f 109/117/97 98/103/97 97/118/97
f 110/119/98 99/104/98 98/103/98
f 111/120/99 100/105/99 99/104/99
f 112/121/100 101/106/100 100/105/100
f 113/122/101 102/107/101 101/106/101
f 114/123/102 103/108/102 102/107/102
f 103/110/103 116/124/103 104/112/103
f 104/112/104 117/125/104 105/113/104
f 105/113/105 118/126/105 106/114/105
f 106/114/106 119/127/106 107/115/106
f 107/115/107 120/128/107 108/116/107
f 120/128/108 97/118/108 108/116/108
f 121/129/109 110/119/109 109/117/109
f 110/119/110 123/130/110 111/120/110
f 111/120/111 124/131/111 112/121/111
f 124/131/112 113/122/112 112/121/112
f 113/122/113 126/132/113 114/123/113
f 126/132/114 115/133/114 114/123/114
f 115/134/115 128/135/115 116/124/115
f 128/135/116 117/125/116 116/124/116
f 129/136/117 118/126/117 117/125/117
f 130/137/118 119/127/118 118/126/118
f 131/138/119 120/128/119 119/127/119
f 120/128/120 121/129/120 109/117/120
f 133/139/121 122/140/121 121/129/121
f 122/140/122 135/141/122 123/130/122
f 135/141/123 124/131/123 123/130/123
f 136/142/124 125/143/124 124/131/124
f 137/144/125 126/132/125 125/143/125
f 138/145/126 127/146/126 126/132/126
f 127/147/127 140/148/127 128/135/127
f 128/135/128 141/149/128 129/136/128
f 129/136/129 142/150/129 130/137/129
f 142/150/130 131/138/130 130/137/130
f 143/151/131 132/152/131 131/138/131
f 132/152/132 133/139/132 121/129/132
f 145/153/133 134/154/133 133/139/133
f 146/155/134 135/141/134 134/154/134
f 147/156/135 136/142/135 135/141/135
f 136/142/136 149/157/136 137/144/136
f 137/144/137 150/158/137 138/145/137
f 150/158/138 139/159/138 138/145/138
f 151/160/139 140/148/139 139/161/139
f 152/162/140 141/149/140 140/148/140
f 153/163/141 142/150/141 141/149/141
f 142/150/142 155/164/142 143/151/142
f 155/164/143 144/165/143 143/151/143
f 156/166/144 133/139/144 144/165/144
f 157/167/145 146/155/145 145/153/145
f 158/168/146 147/156/146 146/155/146
f 159/169/147 148/170/147 147/156/147
f 160/171/148 149/157/148 148/170/148
f 149/157/149 162/172/149 150/158/149
f 162/172/150 151/173/150 150/158/150
f 163/174/151 152/162/151 151/160/151
f 164/175/152 153/163/152 152/162/152
f 153/163/153 166/176/153 154/177/153
f 154/177/154 167/178/154 155/164/154
f 155/164/155 168/179/155 156/166/155
f 156/166/156 157/167/156 145/153/156
f 157/167/157 170/180/157 158/168/157
f 158/168/158 171/181/158 159/169/158
f 159/169/159 172/182/159 160/171/159
f 160/171/160 173/183/160 161/184/160
f 161/184/161 174/185/161 162/172/161
f 174/185/162 163/186/162 162/172/162
f 163/174/163 176/187/163 164/175/163
f 176/187/164 165/188/164 164/175/164
f 177/189/165 166/176/165 165/188/165
f 178/190/166 167/178/166 166/176/166
f 179/191/167 168/179/167 167/178/167
f 180/192/168 157/167/168 168/179/168
f 181/193/169 170/180/169 169/194/169
f 182/195/170 171/181/170 170/180/170
f 171/181/171 184/196/171 172/182/171
f 184/196/172 173/183/172 172/182/172
f 185/197/173 174/185/173 173/183/173
f 186/198/174 175/199/174 174/185/174
f 175/200/175 188/201/175 176/187/175
f 176/187/176 189/202/176 177/189/176
f 177/189/177 190/203/177 178/190/177
f 190/203/178 179/191/178 178/190/178
f 179/191/179 192/204/179 180/192/179
f 192/204/180 169/194/180 180/192/180
f 193/205/181 182/195/181 181/193/181
f 194/206/182 183/207/182 182/195/182
f 195/208/183 184/196/183 183/207/183
f 184/196/184 197/209/184 185/197/184
f 185/197/185 198/210/185 186/198/185
f 186/198/186 199/211/186 187/212/186
f 199/213/187 188/201/187 187/214/187
f 200/215/188 189/202/188 188/201/188
f 201/216/189 190/203/189 189/202/189
f 190/203/190 203/217/190 191/218/190
f 203/217/191 192/204/191 191/218/191
f 204/219/192 181/193/192 192/204/192
f 205/220/193 194/206/193 193/205/193
f 206/221/194 195/208/194 194/206/194
f 207/222/195 196/223/195 195/208/195
f 208/224/196 197/209/196 196/223/196
f 209/225/197 198/210/197 197/209/197
f 198/210/198 211/226/198 199/211/198
f 211/227/199 200/215/199 199/213/199
f 200/215/200 213/228/200 201/216/200
f 201/216/201 214/229/201 202/230/201
f 202/230/202 215/231/202 203/217/202
f 203/217/203 216/232/203 204/219/203
f 204/219/204 205/220/204 193/205/204
f 205/220/205 218/233/205 206/221/205
f 218/233/206 207/222/206 206/221/206
f 207/222/207 220/234/207 208/224/207
f 220/234/208 209/225/208 208/224/208
f 221/235/209 210/236/209 209/225/209
f 210/236/210 223/237/210 211/226/210
f 223/238/211 212/239/211 211/227/211
f 212/239/212 225/240/212 213/228/212
f 213/228/213 226/241/213 214/229/213
f 226/241/214 215/231/214 214/229/214
f 227/242/215 216/232/215 215/231/215
f 228/243/216 205/220/216 216/232/216
f 217/244/217 230/245/217 218/233/217
f 230/245/218 219/246/218 218/233/218
f 231/247/219 220/234/219 219/246/219
f 220/234/220 233/248/220 221/235/220
f 221/235/221 234/249/221 222/250/221
f 222/250/222 235/251/222 223/237/222
f 235/252/223 224/253/223 223/238/223
f 236/254/224 225/240/224 224/253/224
f 237/255/225 226/241/225 225/240/225
f 226/241/226 239/256/226 227/242/226
f 227/242/227 240/257/227 228/243/227
f 240/257/228 217/244/228 228/243/228
f 229/258/229 242/259/229 230/245/229
f 242/259/230 231/247/230 230/245/230
f 231/247/231 244/260/231 232/261/231
f 244/260/232 233/248/232 232/261/232
f 245/262/233 234/249/233 233/248/233
f 246/263/234 235/251/234 234/249/234
f 235/252/235 248/264/235 236/254/235
f 236/254/236 249/265/236 237/255/236
f 249/265/237 238/266/237 237/255/237
f 250/267/238 239/256/238 238/266/238
f 239/256/239 252/268/239 240/257/239
f 252/268/240 229/258/240 240/257/240
f 241/269/241 254/270/241 242/259/241
f 254/270/242 243/271/242 242/259/242
f 243/271/243 256/272/243 244/260/243
f 244/260/244 257/273/244 245/262/244
f 257/273/245 246/263/245 245/262/245
f 258/274/246 247/275/246 246/263/246
f 247/276/247 260/277/247 248/264/247
f 260/277/248 249/265/248 248/264/248
f 261/278/249 250/267/249 249/265/249
f 262/279/250 251/280/250 250/267/250
f 251/280/251 264/281/251 252/268/251
f 264/281/252 241/269/252 252/268/252
f 265/282/253 254/270/253 253/283/253
f 254/270/254 267/284/254 255/285/254
f 267/284/255 256/272/255 255/285/255
f 256/272/256 269/286/256 257/273/256
f 257/273/257 270/287/257 258/274/257
f 258/274/258 271/288/258 259/289/258
f 271/290/259 260/277/259 259/291/259
f 272/292/260 261/278/260 260/277/260
f 273/293/261 262/279/261 261/278/261
f 274/294/262 263/295/262 262/279/262
f 275/296/263 264/281/263 263/295/263
f 276/297/264 253/283/264 264/281/264
f 277/298/265 266/299/265 265/282/265
f 278/300/266 267/284/266 266/299/266
f 279/301/267 268/302/267 267/284/267
f 280/303/268 269/286/268 268/302/268
f 281/304/269 270/287/269 269/286/269
f 270/287/270 283/305/270 271/288/270
f 283/306/271 272/292/271 271/290/271
f 272/292/272 285/307/272 273/293/272
f 273/293/273 286/308/273 274/294/273
f 274/294/274 287/309/274 275/296/274
f 275/296/275 288/310/275 276/297/275
f 276/297/276 277/298/276 265/282/276
f 277/298/277 290/311/277 278/300/277
f 278/300/278 291/312/278 279/301/278
f 279/301/279 292/313/279 280/303/279
f 292/313/280 281/304/280 280/303/280
f 293/314/281 282/315/281 281/304/281
f 294/316/282 283/305/282 282/315/282
f 295/317/283 284/318/283 283/306/283
f 284/318/284 297/319/284 285/307/284
f 297/319/285 286/308/285 285/307/285
f 298/320/286 287/309/286 286/308/286
f 299/321/287 288/310/287 287/309/287
f 300/322/288 277/298/288 288/310/288
f 301/323/6 290/324/6 289/325/6
f 302/326/5 291/327/5 290/324/5
f 303/328/4 292/329/4 291/327/4
f 304/330/3 293/331/3 292/329/3
f 293/331/2 306/332/2 294/333/2
f 306/332/1 295/334/1 294/333/1
f 307/335/12 296/336/12 295/337/12
f 308/338/11 297/339/11 296/336/11
f 297/339/10 310/340/10 298/341/10
f 298/341/9 311/342/9 299/343/9
f 299/343/8 312/344/8 300/345/8
f 300/345/7 301/323/7 289/325/7
f 301/323/18 314/346/18 302/326/18
f 302/326/17 315/347/17 303/328/17
f 303/328/16 316/348/16 304/330/16
f 304/330/15 317/349/15 305/350/15
f 305/350/14 318/351/14 306/332/14
f 318/351/13 307/352/13 306/332/13
f 307/335/24 320/353/24 308/338/24
f 320/353/23 309/354/23 308/338/23
f 321/355/22 310/340/22 309/354/22
f 322/356/21 311/342/21 310/340/21
f 323/357/20 312/344/20 311/342/20
f 324/358/19 301/323/19 312/344/19
f 325/359/30 314/346/30 313/360/30
f 326/361/29 315/347/29 314/346/29
f 315/347/28 328/362/28 316/348/28
f 328/362/27 317/349/27 316/348/27
f 329/363/26 318/351/26 317/349/26
f 330/364/25 319/365/25 318/351/25
f 319/366/36 332/367/36 320/353/36
f 320/353/35 333/368/35 321/355/35
f 321/355/34 334/369/34 322/356/34
f 334/369/33 323/357/33 322/356/33
f 323/357/32 336/370/32 324/358/32
f 336/370/31 313/360/31 324/358/31
f 337/371/42 326/361/42 325/359/42
f 338/372/41 327/373/41 326/361/41
f 339/374/40 328/362/40 327/373/40
f 340/375/39 329/363/39 328/362/39
f 341/376/38 330/364/38 329/363/38
f 330/364/37 343/377/37 331/378/37
f 343/379/48 332/367/48 331/380/48
f 332/367/47 345/381/47 333/368/47
f 345/381/46 334/369/46 333/368/46
f 334/369/45 347/382/45 335/383/45
f 335/383/44 348/384/44 336/370/44
f 336/370/43 337/371/43 325/359/43
f 349/385/54 338/372/54 337/371/54
f 350/386/53 339/374/53 338/372/53
f 351/387/52 340/375/52 339/374/52
f 352/388/51 341/376/51 340/375/51
f 341/376/50 354/389/50 342/390/50
f 342/390/49 355/391/49 343/377/49
f 355/392/60 344/393/60 343/379/60
f 356/394/59 345/381/59 344/393/59
f 357/395/58 346/396/58 345/381/58
f 346/396/57 359/397/57 347/382/57
f 347/382/56 360/398/56 348/384/56
f 348/384/55 349/385/55 337/371/55
f 361/399/66 350/386/66 349/385/66
f 350/386/65 363/400/65 351/387/65
f 351/387/64 364/401/64 352/388/64
f 364/401/63 353/402/63 352/388/63
f 365/403/62 354/389/62 353/402/62
f 366/404/61 355/391/61 354/389/61
f 355/392/72 368/405/72 356/394/72
f 356/394/71 369/406/71 357/395/71
f 357/395/70 370/407/70 358/408/70
f 370/407/69 359/397/69 358/408/69
f 371/409/68 360/398/68 359/397/68
f 360/398/67 361/399/67 349/385/67
f 373/410/78 362/411/78 361/399/78
f 362/411/77 375/412/77 363/400/77
f 363/400/76 376/413/76 364/401/76
f 364/401/75 377/414/75 365/403/75
f 365/403/74 378/415/74 366/404/74
f 378/415/73 367/416/73 366/404/73
f 379/417/84 368/405/84 367/418/84
f 380/419/83 369/406/83 368/405/83
f 381/420/82 370/407/82 369/406/82
f 382/421/81 371/409/81 370/407/81
f 383/422/80 372/423/80 371/409/80
f 384/424/79 361/399/79 372/423/79
f 373/410/90 386/425/90 374/426/90
f 386/425/89 375/412/89 374/426/89
f 375/412/88 388/427/88 376/413/88
f 376/413/87 389/428/87 377/414/87
f 377/414/86 390/429/86 378/415/86
f 390/429/85 379/430/85 378/415/85
f 379/417/96 392/431/96 380/419/96
f 392/431/95 381/420/95 380/419/95
f 393/432/94 382/421/94 381/420/94
f 394/433/93 383/422/93 382/421/93
f 395/434/92 384/424/92 383/422/92
f 396/435/91 373/410/91 384/424/91
f 397/436/102 386/425/102 385/437/102
f 398/438/101 387/439/101 386/425/101
f 387/439/100 400/440/100 388/427/100
f 400/440/99 389/428/99 388/427/99
f 401/441/98 390/429/98 389/428/98
f 402/442/97 391/443/97 390/429/97
f 391/444/108 404/445/108 392/431/108
f 392/431/107 405/446/107 393/432/107
f 393/432/106 406/447/106 394/433/106
f 406/447/105 395/434/105 394/433/105
f 407/448/104 396/435/104 395/434/104
f 408/449/103 385/437/103 396/435/103
f 397/436/114 410/450/114 398/438/114
f 410/450/113 399/451/113 398/438/113
f 411/452/112 400/440/112 399/451/112
f 400/440/111 413/453/111 401/441/111
f 401/441/110 414/454/110 402/442/110
f 414/454/109 403/455/109 402/442/109
f 415/456/120 404/445/120 403/457/120
f 416/458/119 405/446/119 404/445/119
f 417/459/118 406/447/118 405/446/118
f 406/447/117 419/460/117 407/448/117
f 407/448/116 420/461/116 408/449/116
f 420/461/115 397/436/115 408/449/115
f 409/462/126 422/463/126 410/450/126
f 422/463/125 411/452/125 410/450/125
f 423/464/124 412/465/124 411/452/124
f 424/466/123 413/453/123 412/465/123
f 413/453/122 426/467/122 414/454/122
f 426/467/121 415/468/121 414/454/121
f 415/456/132 428/469/132 416/458/132
f 428/469/131 417/459/131 416/458/131
f 417/459/130 430/470/130 418/471/130
f 430/470/129 419/460/129 418/471/129
f 431/472/128 420/461/128 419/460/128
f 432/473/127 409/462/127 420/461/127
f 433/474/138 422/463/138 421/475/138
f 434/476/137 423/464/137 422/463/137
f 435/477/136 424/466/136 423/464/136
f 424/466/135 437/478/135 425/479/135
f 437/478/134 426/467/134 425/479/134
f 426/467/133 439/480/133 427/481/133
f 439/482/144 428/469/144 427/483/144
f 440/484/143 429/485/143 428/469/143
f 441/486/142 430/470/142 429/485/142
f 442/487/141 431/472/141 430/470/141
f 431/472/140 444/488/140 432/473/140
f 444/488/139 421/475/139 432/473/139
f 445/489/150 434/476/150 433/474/150
f 446/490/149 435/477/149 434/476/149
f 435/477/148 448/491/148 436/492/148
f 448/491/147 437/478/147 436/492/147
f 449/493/146 438/494/146 437/478/146
f 450/495/145 439/480/145 438/494/145
f 451/496/156 440/484/156 439/482/156
f 440/484/155 453/497/155 441/486/155
f 441/486/154 454/498/154 442/487/154
f 454/498/153 443/499/153 442/487/153
f 455/500/152 444/488/152 443/499/152
f 456/501/151 433/474/151 444/488/151
f 457/502/162 446/490/162 445/489/162
f 458/503/161 447/504/161 446/490/161
f 459/505/160 448/491/160 447/504/160
f 460/506/159 449/493/159 448/491/159
f 449/493/158 462/507/158 450/495/158
f 462/507/157 451/508/157 450/495/157
f 463/509/168 452/510/168 451/496/168
f 464/511/167 453/497/167 452/510/167
f 453/497/166 466/512/166 454/498/166
f 454/498/165 467/513/165 455/500/165
f 455/500/164 468/514/164 456/501/164
f 468/514/163 445/489/163 456/501/163
f 469/515/174 458/503/174 457/502/174
f 470/516/173 459/505/173 458/503/173
f 471/517/172 460/506/172 459/505/172
f 460/506/171 473/518/171 461/519/171
f 473/518/170 462/507/170 461/519/170
f 462/507/169 475/520/169 463/521/169
f 475/522/180 464/511/180 463/509/180
f 476/523/179 465/524/179 464/511/179
f 477/525/178 466/512/178 465/524/178
f 478/526/177 467/513/177 466/512/177
f 467/513/176 480/527/176 468/514/176
f 468/514/175 469/515/175 457/502/175
f 481/528/186 470/516/186 469/515/186
f 470/516/185 483/529/185 471/517/185
f 471/517/184 484/530/184 472/531/184
f 472/531/183 485/532/183 473/518/183
f 473/518/182 486/533/182 474/534/182
f 474/534/181 487/535/181 475/520/181
f 487/536/192 476/523/192 475/522/192
f 488/537/191 477/525/191 476/523/191
f 489/538/190 478/526/190 477/525/190
f 490/539/189 479/540/189 478/526/189
f 491/541/188 480/527/188 479/540/188
f 492/542/187 469/515/187 480/527/187
f 481/528/198 494/543/198 482/544/198
f 494/543/197 483/529/197 482/544/197
f 495/545/196 484/530/196 483/529/196
f 496/546/195 485/532/195 484/530/195
f 497/547/194 486/533/194 485/532/194
f 498/548/193 487/535/193 486/533/193
f 487/536/204 500/549/204 488/537/204
f 488/537/203 501/550/203 489/538/203
f 489/538/202 502/551/202 490/539/202
f 490/539/201 503/552/201 491/541/201
f 491/541/200 504/553/200 492/542/200
f 504/553/199 481/528/199 492/542/199
f 493/554/210 506/555/210 494/543/210
f 506/555/209 495/545/209 494/543/209
f 495/545/208 508/556/208 496/546/208
f 496/546/207 509/557/207 497/547/207
f 497/547/206 510/558/206 498/548/206
f 498/548/205 511/559/205 499/560/205
f 511/561/216 500/549/216 499/562/216
f 512/563/215 501/550/215 500/549/215
f 513/564/214 502/551/214 501/550/214
f 514/565/213 503/552/213 502/551/213
f 515/566/212 504/553/212 503/552/212
f 516/567/211 493/554/211 504/553/211
f 505/568/222 518/569/222 506/555/222
f 518/569/221 507/570/221 506/555/221
f 507/570/220 520/571/220 508/556/220
f 520/571/219 509/557/219 508/556/219
f 521/572/218 510/558/218 509/557/218
f 510/558/217 523/573/217 511/559/217
f 523/574/228 512/563/228 511/561/228
f 512/563/227 525/575/227 513/564/227
f 525/575/226 514/565/226 513/564/226
f 526/576/225 515/566/225 514/565/225
f 515/566/224 528/577/224 516/567/224
f 528/577/223 505/568/223 516/567/223
f 517/578/234 530/579/234 518/569/234
f 530/579/233 519/580/233 518/569/233
f 531/581/232 520/571/232 519/580/232
f 520/571/231 533/582/231 521/572/231
f 533/582/230 522/583/230 521/572/230
f 522/583/229 535/584/229 523/573/229
f 535/585/240 524/586/240 523/574/240
f 524/586/239 537/587/239 525/575/239
f 537/587/238 526/576/238 525/575/238
f 538/588/237 527/589/237 526/576/237
f 527/589/236 540/590/236 528/577/236
f 540/590/235 517/578/235 528/577/235
f 529/591/246 542/592/246 530/579/246
f 530/579/245 543/593/245 531/581/245
f 531/581/244 544/594/244 532/595/244
f 532/595/243 545/596/243 533/582/243
f 545/596/242 534/597/242 533/582/242
f 534/597/241 547/598/241 535/584/241
f 547/599/252 536/600/252 535/585/252
f 548/601/251 537/587/251 536/600/251
f 549/602/250 538/588/250 537/587/250
f 550/603/249 539/604/249 538/588/249
f 551/605/248 540/590/248 539/604/248
f 552/606/247 529/591/247 540/590/247
f 553/607/258 542/592/258 541/608/258
f 554/609/257 543/593/257 542/592/257
f 555/610/256 544/594/256 543/593/256
f 556/611/255 545/596/255 544/594/255
f 557/612/254 546/613/254 545/596/254
f 558/614/253 547/598/253 546/613/253
f 547/599/264 560/615/264 548/601/264
f 548/601/263 561/616/263 549/602/263
f 561/616/262 550/603/262 549/602/262
f 550/603/261 563/617/261 551/605/261
f 563/617/260 552/606/260 551/605/260
f 552/606/259 553/607/259 541/608/259
f 565/618/270 554/609/270 553/607/270
f 554/609/269 567/619/269 555/610/269
f 555/610/268 568/620/268 556/611/268
f 556/611/267 569/621/267 557/612/267
f 557/612/266 570/622/266 558/614/266
f 558/614/265 571/623/265 559/624/265
f 571/625/276 560/615/276 559/626/276
f 572/627/275 561/616/275 560/615/275
f 573/628/274 562/629/274 561/616/274
f 574/630/273 563/617/273 562/629/273
f 575/631/272 564/632/272 563/617/272
f 576/633/271 553/607/271 564/632/271
f 1/1/282 566/634/282 565/618/282
f 2/3/281 567/619/281 566/634/281
f 3/5/280 568/620/280 567/619/280
f 4/7/279 569/621/279 568/620/279
f 569/621/278 6/10/278 570/622/278
f 6/10/277 571/623/277 570/622/277
f 571/625/288 8/14/288 572/627/288
f 8/14/287 573/628/287 572/627/287
f 573/628/286 10/18/286 574/630/286
f 574/630/285 11/20/285 575/631/285
f 575/631/284 12/22/284 576/633/284
f 576/633/283 1/1/283 565/618/283
f 1/1/1 13/25/1 14/2/1
f 2/3/2 14/2/2 15/4/2
f 3/5/3 15/4/3 16/6/3
f 4/7/4 16/6/4 17/8/4
f 17/8/5 18/30/5 6/10/5
f 6/10/6 18/30/6 19/11/6
f 19/13/7 20/33/7 8/14/7
f 8/14/8 20/33/8 21/16/8
f 21/16/9 22/19/9 10/18/9
f 22/19/10 23/21/10 11/20/10
f 23/21/11 24/23/11 12/22/11
f 24/23/12 13/25/12 1/1/12
f 25/24/13 26/26/13 14/2/13
f 26/26/14 27/27/14 15/4/14
f 27/27/15 28/28/15 16/6/15
f 28/28/16 29/29/16 17/8/16
f 29/29/17 30/42/17 18/30/17
f 18/30/18 30/42/18 31/31/18
f 31/32/19 32/45/19 20/33/19
f 20/33/20 32/45/20 33/34/20
f 21/16/21 33/34/21 34/35/21
f 22/19/22 34/35/22 35/36/22
f 23/21/23 35/36/23 36/37/23
f 24/23/24 36/37/24 25/24/24
f 25/24/25 37/50/25 38/38/25
f 38/38/26 39/39/26 27/27/26
f 39/39/27 40/53/27 28/28/27
f 28/28/28 40/53/28 41/40/28
f 29/29/29 41/40/29 42/41/29
f 30/42/30 42/41/30 43/43/30
f 43/44/31 44/46/31 32/45/31
f 44/46/32 45/47/32 33/34/32
f 45/47/33 46/58/33 34/35/33
f 34/35/34 46/58/34 47/48/34
f 47/48/35 48/49/35 36/37/35
f 48/49/36 37/50/36 25/24/36
f 37/50/37 49/61/37 50/51/37
f 50/51/38 51/63/38 39/39/38
f 39/39/39 51/63/39 52/52/39
f 52/52/40 53/54/40 41/40/40
f 53/54/41 54/55/41 42/41/41
f 54/55/42 55/66/42 43/43/42
f 43/44/43 55/67/43 56/56/43
f 56/56/44 57/69/44 45/47/44
f 45/47/45 57/69/45 58/57/45
f 58/57/46 59/71/46 47/48/46
f 47/48/47 59/71/47 60/59/47
f 60/59/48 49/61/48 37/50/48
f 61/60/49 62/74/49 50/51/49
f 50/51/50 62/74/50 63/62/50
f 63/62/51 64/64/51 52/52/51
f 64/64/52 65/78/52 53/54/52
f 53/54/53 65/78/53 66/65/53
f 66/65/54 67/80/54 55/66/54
f 55/67/55 67/82/55 68/68/55
f 68/68/56 69/84/56 57/69/56
f 57/69/57 69/84/57 70/70/57
f 70/70/58 71/72/58 59/71/58
f 71/72/59 72/88/59 60/59/59
f 60/59/60 72/88/60 61/60/60
f 73/73/61 74/75/61 62/74/61
f 74/75/62 75/76/62 63/62/62
f 75/76/63 76/77/63 64/64/63
f 76/77/64 77/92/64 65/78/64
f 65/78/65 77/92/65 78/79/65
f 78/79/66 79/95/66 67/80/66
f 79/81/67 80/83/67 68/68/67
f 80/83/68 81/98/68 69/84/68
f 69/84/69 81/98/69 82/85/69
f 70/70/70 82/85/70 83/86/70
f 71/72/71 83/86/71 84/87/71
f 72/88/72 84/87/72 73/73/72
f 73/73/73 85/102/73 86/89/73
f 74/75/74 86/89/74 87/90/74
f 87/90/75 88/91/75 76/77/75
f 88/91/76 89/93/76 77/92/76
f 89/93/77 90/94/77 78/79/77
f 90/94/78 91/109/78 79/95/78
f 79/81/79 91/111/79 92/96/79
f 80/83/80 92/96/80 93/97/80
f 81/98/81 93/97/81 94/99/81
f 82/85/82 94/99/82 95/100/82
f 95/100/83 96/101/83 84/87/83
f 96/101/84 85/102/84 73/73/84
f 85/102/85 97/118/85 98/103/85
f 86/89/86 98/103/86 99/104/86
f 87/90/87 99/104/87 100/105/87
f 88/91/88 100/105/88 101/106/88
f 89/93/89 101/106/89 102/107/89
f 90/94/90 102/107/90 103/108/90
f 103/110/91 104/112/91 92/96/91
f 104/112/92 105/113/92 93/97/92
f 105/113/93 106/114/93 94/99/93
f 106/114/94 107/115/94 95/100/94
f 107/115/95 108/116/95 96/101/95
f 108/116/96 97/118/96 85/102/96
f 109/117/97 110/119/97 98/103/97
f 110/119/98 111/120/98 99/104/98
f 111/120/99 112/121/99 100/105/99
f 112/121/100 113/122/100 101/106/100
f 113/122/101 114/123/101 102/107/101
f 114/123/102 115/133/102 103/108/102
f 103/110/103 115/134/103 116/124/103
f 104/112/104 116/124/104 117/125/104
f 105/113/105 117/125/105 118/126/105
f 106/114/106 118/126/106 119/127/106
f 107/115/107 119/127/107 120/128/107
f 120/128/108 109/117/108 97/118/108
f 121/129/109 122/140/109 110/119/109
f 110/119/110 122/140/110 123/130/110
f 111/120/111 123/130/111 124/131/111
f 124/131/112 125/143/112 113/122/112
f 113/122/113 125/143/113 126/132/113
f 126/132/114 127/146/114 115/133/114
f 115/134/115 127/147/115 128/135/115
f 128/135/116 129/136/116 117/125/116
f 129/136/117 130/137/117 118/126/117
f 130/137/118 131/138/118 119/127/118
f 131/138/119 132/152/119 120/128/119
f 120/128/120 132/152/120 121/129/120
f 133/139/121 134/154/121 122/140/121
f 122/140/122 134/154/122 135/141/122
f 135/141/123 136/142/123 124/131/123
f 136/142/124 137/144/124 125/143/124
f 137/144/125 138/145/125 126/132/125
f 138/145/126 139/159/126 127/146/126
f 127/147/127 139/161/127 140/148/127
f 128/135/128 140/148/128 141/149/128
f 129/136/129 141/149/129 142/150/129
f 142/150/130 143/151/130 131/138/130
f 143/151/131 144/165/131 132/152/131
f 132/152/132 144/165/132 133/139/132
f 145/153/133 146/155/133 134/154/133
f 146/155/134 147/156/134 135/141/134
f 147/156/135 148/170/135 136/142/135
f 136/142/136 148/170/136 149/157/136
f 137/144/137 149/157/137 150/158/137
f 150/158/138 151/173/138 139/159/138
f 151/160/139 152/162/139 140/148/139
f 152/162/140 153/163/140 141/149/140
f 153/163/141 154/177/141 142/150/141
f 142/150/142 154/177/142 155/164/142
f 155/164/143 156/166/143 144/165/143
f 156/166/144 145/153/144 133/139/144
f 157/167/145 158/168/145 146/155/145
f 158/168/146 159/169/146 147/156/146
f 159/169/147 160/171/147 148/170/147
f 160/171/148 161/184/148 149/157/148
f 149/157/149 161/184/149 162/172/149
f 162/172/150 163/186/150 151/173/150
f 163/174/151 164/175/151 152/162/151
f 164/175/152 165/188/152 153/163/152
f 153/163/153 165/188/153 166/176/153
f 154/177/154 166/176/154 167/178/154
f 155/164/155 167/178/155 168/179/155
f 156/166/156 168/179/156 157/167/156
f 157/167/157 169/194/157 170/180/157
f 158/168/158 170/180/158 171/181/158
f 159/169/159 171/181/159 172/182/159
f 160/171/160 172/182/160 173/183/160
f 161/184/161 173/183/161 174/185/161
f 174/185/162 175/199/162 163/186/162
f 163/174/163 175/200/163 176/187/163
f 176/187/164 177/189/164 165/188/164
f 177/189/165 178/190/165 166/176/165
f 178/190/166 179/191/166 167/178/166
f 179/191/167 180/192/167 168/179/167
f 180/192/168 169/194/168 157/167/168
f 181/193/169 182/195/169 170/180/169
f 182/195/170 183/207/170 171/181/170
f 171/181/171 183/207/171 184/196/171
f 184/196/172 185/197/172 173/183/172
f 185/197/173 186/198/173 174/185/173
f 186/198/174 187/212/174 175/199/174
f 175/200/175 187/214/175 188/201/175
f 176/187/176 188/201/176 189/202/176
f 177/189/177 189/202/177 190/203/177
f 190/203/178 191/218/178 179/191/178
f 179/191/179 191/218/179 192/204/179
f 192/204/180 181/193/180 169/194/180
f 193/205/181 194/206/181 182/195/181
f 194/206/182 195/208/182 183/207/182
f 195/208/183 196/223/183 184/196/183
f 184/196/184 196/223/184 197/209/184
f 185/197/185 197/209/185 198/210/185
f 186/198/186 198/210/186 199/211/186
f 199/213/187 200/215/187 188/201/187
f 200/215/188 201/216/188 189/202/188
f 201/216/189 202/230/189 190/203/189
f 190/203/190 202/230/190 203/217/190
f 203/217/191 204/219/191 192/204/191
f 204/219/192 193/205/192 181/193/192
f 205/220/193 206/221/193 194/206/193
f 206/221/194 207/222/194 195/208/194
f 207/222/195 208/224/195 196/223/195
f 208/224/196 209/225/196 197/209/196
f 209/225/197 210/236/197 198/210/197
f 198/210/198 210/236/198 211/226/198
f 211/227/199 212/239/199 200/215/199
f 200/215/200 212/239/200 213/228/200
f 201/216/201 213/228/201 214/229/201
f 202/230/202 214/229/202 215/231/202
f 203/217/203 215/231/203 216/232/203
f 204/219/204 216/232/204 205/220/204
f 205/220/205 217/244/205 218/233/205
f 218/233/206 219/246/206 207/222/206
f 207/222/207 219/246/207 220/234/207
f 220/234/208 221/235/208 209/225/208
f 221/235/209 222/250/209 210/236/209
f 210/236/210 222/250/210 223/237/210
f 223/238/211 224/253/211 212/239/211
f 212/239/212 224/253/212 225/240/212
f 213/228/213 225/240/213 226/241/213
f 226/241/214 227/242/214 215/231/214
f 227/242/215 228/243/215 216/232/215
f 228/243/216 217/244/216 205/220/216
f 217/244/217 229/258/217 230/245/217
f 230/245/218 231/247/218 219/246/218
f 231/247/219 232/261/219 220/234/219
f 220/234/220 232/261/220 233/248/220
f 221/235/221 233/248/221 234/249/221
f 222/250/222 234/249/222 235/251/222
f 235/252/223 236/254/223 224/253/223
f 236/254/224 237/255/224 225/240/224
f 237/255/225 238/266/225 226/241/225
f 226/241/226 238/266/226 239/256/226
f 227/242/227 239/256/227 240/257/227
f 240/257/228 229/258/228 217/244/228
f 229/258/229 241/269/229 242/259/229
f 242/259/230 243/271/230 231/247/230
f 231/247/231 243/271/231 244/260/231
f 244/260/232 245/262/232 233/248/232
f 245/262/233 246/263/233 234/249/233
f 246/263/234 247/275/234 235/251/234
f 235/252/235 247/276/235 248/264/235
f 236/254/236 248/264/236 249/265/236
f 249/265/237 250/267/237 238/266/237
f 250/267/238 251/280/238 239/256/238
f 239/256/239 251/280/239 252/268/239
f 252/268/240 241/269/240 229/258/240
f 241/269/241 253/283/241 254/270/241
f 254/270/242 255/285/242 243/271/242
f 243/271/243 255/285/243 256/272/243
f 244/260/244 256/272/244 257/273/244
f 257/273/245 258/274/245 246/263/245
f 258/274/246 259/289/246 247/275/246
f 247/276/247 259/291/247 260/277/247
f 260/277/248 261/278/248 249/265/248
f 261/278/249 262/279/249 250/267/249
f 262/279/250 263/295/250 251/280/250
f 251/280/251 263/295/251 264/281/251
f 264/281/252 253/283/252 241/269/252
f 265/282/253 266/299/253 254/270/253
f 254/270/254 266/299/254 267/284/254
f 267/284/255 268/302/255 256/272/255
f 256/272/256 268/302/256 269/286/256
f 257/273/257 269/286/257 270/287/257
f 258/274/258 270/287/258 271/288/258
f 271/290/259 272/292/259 260/277/259
f 272/292/260 273/293/260 261/278/260
f 273/293/261 274/294/261 262/279/261
f 274/294/262 275/296/262 263/295/262
f 275/296/263 276/297/263 264/281/263
f 276/297/264 265/282/264 253/283/264
f 277/298/265 278/300/265 266/299/265
f 278/300/266 279/301/266 267/284/266
f 279/301/267 280/303/267 268/302/267
f 280/303/268 281/304/268 269/286/268
f 281/304/269 282/315/269 270/287/269
f 270/287/270 282/315/270 283/305/270
f 283/306/271 284/318/271 272/292/271
f 272/292/272 284/318/272 285/307/272
f 273/293/273 285/307/273 286/308/273
f 274/294/274 286/308/274 287/309/274
f 275/296/275 287/309/275 288/310/275
f 276/297/276 288/310/276 277/298/276
f 277/298/277 289/635/277 290/311/277
f 278/300/278 290/311/278 291/312/278
f 279/301/279 291/312/279 292/313/279
f 292/313/280 293/314/280 281/304/280
f 293/314/281 294/316/281 282/315/281
f 294/316/282 295/636/282 283/305/282
f 295/317/283 296/637/283 284/318/283
f 284/318/284 296/637/284 297/319/284
f 297/319/285 298/320/285 286/308/285
f 298/320/286 299/321/286 287/309/286
f 299/321/287 300/322/287 288/310/287
f 300/322/288 289/635/288 277/298/288
f 301/323/6 302/326/6 290/324/6
f 302/326/5 303/328/5 291/327/5
f 303/328/4 304/330/4 292/329/4
f 304/330/3 305/350/3 293/331/3
f 293/331/2 305/350/2 306/332/2
f 306/332/1 307/352/1 295/334/1
f 307/335/12 308/338/12 296/336/12
f 308/338/11 309/354/11 297/339/11
f 297/339/10 309/354/10 310/340/10
f 298/341/9 310/340/9 311/342/9
f 299/343/8 311/342/8 312/344/8
f 300/345/7 312/344/7 301/323/7
f 301/323/18 313/360/18 314/346/18
f 302/326/17 314/346/17 315/347/17
f 303/328/16 315/347/16 316/348/16
f 304/330/15 316/348/15 317/349/15
f 305/350/14 317/349/14 318/351/14
f 318/351/13 319/365/13 307/352/13
f 307/335/24 319/366/24 320/353/24
f 320/353/23 321/355/23 309/354/23
f 321/355/22 322/356/22 310/340/22
f 322/356/21 323/357/21 311/342/21
f 323/357/20 324/358/20 312/344/20
f 324/358/19 313/360/19 301/323/19
f 325/359/30 326/361/30 314/346/30
f 326/361/29 327/373/29 315/347/29
f 315/347/28 327/373/28 328/362/28
f 328/362/27 329/363/27 317/349/27
f 329/363/26 330/364/26 318/351/26
f 330/364/25 331/378/25 319/365/25
f 319/366/36 331/380/36 332/367/36
f 320/353/35 332/367/35 333/368/35
f 321/355/34 333/368/34 334/369/34
f 334/369/33 335/383/33 323/357/33
f 323/357/32 335/383/32 336/370/32
f 336/370/31 325/359/31 313/360/31
f 337/371/42 338/372/42 326/361/42
f 338/372/41 339/374/41 327/373/41
f 339/374/40 340/375/40 328/362/40
f 340/375/39 341/376/39 329/363/39
f 341/376/38 342/390/38 330/364/38
f 330/364/37 342/390/37 343/377/37
f 343/379/48 344/393/48 332/367/48
f 332/367/47 344/393/47 345/381/47
f 345/381/46 346/396/46 334/369/46
f 334/369/45 346/396/45 347/382/45
f 335/383/44 347/382/44 348/384/44
f 336/370/43 348/384/43 337/371/43
f 349/385/54 350/386/54 338/372/54
f 350/386/53 351/387/53 339/374/53
f 351/387/52 352/388/52 340/375/52
f 352/388/51 353/402/51 341/376/51
f 341/376/50 353/402/50 354/389/50
f 342/390/49 354/389/49 355/391/49
f 355/392/60 356/394/60 344/393/60
f 356/394/59 357/395/59 345/381/59
f 357/395/58 358/408/58 346/396/58
f 346/396/57 358/408/57 359/397/57
f 347/382/56 359/397/56 360/398/56
f 348/384/55 360/398/55 349/385/55
f 361/399/66 362/411/66 350/386/66
f 350/386/65 362/411/65 363/400/65
f 351/387/64 363/400/64 364/401/64
f 364/401/63 365/403/63 353/402/63
f 365/403/62 366/404/62 354/389/62
f 366/404/61 367/416/61 355/391/61
f 355/392/72 367/418/72 368/405/72
f 356/394/71 368/405/71 369/406/71
f 357/395/70 369/406/70 370/407/70
f 370/407/69 371/409/69 359/397/69
f 371/409/68 372/423/68 360/398/68
f 360/398/67 372/423/67 361/399/67
f 373/410/78 374/426/78 362/411/78
f 362/411/77 374/426/77 375/412/77
f 363/400/76 375/412/76 376/413/76
f 364/401/75 376/413/75 377/414/75
f 365/403/74 377/414/74 378/415/74
f 378/415/73 379/430/73 367/416/73
f 379/417/84 380/419/84 368/405/84
f 380/419/83 381/420/83 369/406/83
f 381/420/82 382/421/82 370/407/82
f 382/421/81 383/422/81 371/409/81
f 383/422/80 384/424/80 372/423/80
f 384/424/79 373/410/79 361/399/79
f 373/410/90 385/437/90 386/425/90
f 386/425/89 387/439/89 375/412/89
f 375/412/88 387/439/88 388/427/88
f 376/413/87 388/427/87 389/428/87
f 377/414/86 389/428/86 390/429/86
f 390/429/85 391/443/85 379/430/85
f 379/417/96 391/444/96 392/431/96
f 392/431/95 393/432/95 381/420/95
f 393/432/94 394/433/94 382/421/94
f 394/433/93 395/434/93 383/422/93
f 395/434/92 396/435/92 384/424/92
f 396/435/91 385/437/91 373/410/91
f 397/436/102 398/438/102 386/425/102
f 398/438/101 399/451/101 387/439/101
f 387/439/100 399/451/100 400/440/100
f 400/440/99 401/441/99 389/428/99
f 401/441/98 402/442/98 390/429/98
f 402/442/97 403/455/97 391/443/97
f 391/444/108 403/457/108 404/445/108
f 392/431/107 404/445/107 405/446/107
f 393/432/106 405/446/106 406/447/106
f 406/447/105 407/448/105 395/434/105
f 407/448/104 408/449/104 396/435/104
f 408/449/103 397/436/103 385/437/103
f 397/436/114 409/462/114 410/450/114
f 410/450/113 411/452/113 399/451/113
f 411/452/112 412/465/112 400/440/112
f 400/440/111 412/465/111 413/453/111
f 401/441/110 413/453/110 414/454/110
f 414/454/109 415/468/109 403/455/109
f 415/456/120 416/458/120 404/445/120
f 416/458/119 417/459/119 405/446/119
f 417/459/118 418/471/118 406/447/118
f 406/447/117 418/471/117 419/460/117
f 407/448/116 419/460/116 420/461/116
f 420/461/115 409/462/115 397/436/115
f 409/462/126 421/475/126 422/463/126
f 422/463/125 423/464/125 411/452/125
f 423/464/124 424/466/124 412/465/124
f 424/466/123 425/479/123 413/453/123
f 413/453/122 425/479/122 426/467/122
f 426/467/121 427/481/121 415/468/121
f 415/456/132 427/483/132 428/469/132
f 428/469/131 429/485/131 417/459/131
f 417/459/130 429/485/130 430/470/130
f 430/470/129 431/472/129 419/460/129
f 431/472/128 432/473/128 420/461/128
f 432/473/127 421/475/127 409/462/127
f 433/474/138 434/476/138 422/463/138
f 434/476/137 435/477/137 423/464/137
f 435/477/136 436/492/136 424/466/136
f 424/466/135 436/492/135 437/478/135
f 437/478/134 438/494/134 426/467/134
f 426/467/133 438/494/133 439/480/133
f 439/482/144 440/484/144 428/469/144
f 440/484/143 441/486/143 429/485/143
f 441/486/142 442/487/142 430/470/142
f 442/487/141 443/499/141 431/472/141
f 431/472/140 443/499/140 444/488/140
f 444/488/139 433/474/139 421/475/139
f 445/489/150 446/490/150 434/476/150
f 446/490/149 447/504/149 435/477/149
f 435/477/148 447/504/148 448/491/148
f 448/491/147 449/493/147 437/478/147
f 449/493/146 450/495/146 438/494/146
f 450/495/145 451/508/145 439/480/145
f 451/496/156 452/510/156 440/484/156
f 440/484/155 452/510/155 453/497/155
f 441/486/154 453/497/154 454/498/154
f 454/498/153 455/500/153 443/499/153
f 455/500/152 456/501/152 444/488/152
f 456/501/151 445/489/151 433/474/151
f 457/502/162 458/503/162 446/490/162
f 458/503/161 459/505/161 447/504/161
f 459/505/160 460/506/160 448/491/160
f 460/506/159 461/519/159 449/493/159
f 449/493/158 461/519/158 462/507/158
f 462/507/157 463/521/157 451/508/157
f 463/509/168 464/511/168 452/510/168
f 464/511/167 465/524/167 453/497/167
f 453/497/166 465/524/166 466/512/166
f 454/498/165 466/512/165 467/513/165
f 455/500/164 467/513/164 468/514/164
f 468/514/163 457/502/163 445/489/163
f 469/515/174 470/516/174 458/503/174
f 470/516/173 471/517/173 459/505/173
f 471/517/172 472/531/172 460/506/172
f 460/506/171 472/531/171 473/518/171
f 473/518/170 474/534/170 462/507/170
f 462/507/169 474/534/169 475/520/169
f 475/522/180 476/523/180 464/511/180
f 476/523/179 477/525/179 465/524/179
f 477/525/178 478/526/178 466/512/178
f 478/526/177 479/540/177 467/513/177
f 467/513/176 479/540/176 480/527/176
f 468/514/175 480/527/175 469/515/175
f 481/528/186 482/544/186 470/516/186
f 470/516/185 482/544/185 483/529/185
f 471/517/184 483/529/184 484/530/184
f 472/531/183 484/530/183 485/532/183
f 473/518/182 485/532/182 486/533/182
f 474/534/181 486/533/181 487/535/181
f 487/536/192 488/537/192 476/523/192
f 488/537/191 489/538/191 477/525/191
f 489/538/190 490/539/190 478/526/190
f 490/539/189 491/541/189 479/540/189
f 491/541/188 492/542/188 480/527/188
f 492/542/187 481/528/187 469/515/187
f 481/528/198 493/554/198 494/543/198
f 494/543/197 495/545/197 483/529/197
f 495/545/196 496/546/196 484/530/196
f 496/546/195 497/547/195 485/532/195
f 497/547/194 498/548/194 486/533/194
f 498/548/193 499/560/193 487/535/193
f 487/536/204 499/562/204 500/549/204
f 488/537/203 500/549/203 501/550/203
f 489/538/202 501/550/202 502/551/202
f 490/539/201 502/551/201 503/552/201
f 491/541/200 503/552/200 504/553/200
f 504/553/199 493/554/199 481/528/199
f 493/554/210 505/568/210 506/555/210
f 506/555/209 507/570/209 495/545/209
f 495/545/208 507/570/208 508/556/208
f 496/546/207 508/556/207 509/557/207
f 497/547/206 509/557/206 510/558/206
f 498/548/205 510/558/205 511/559/205
f 511/561/216 512/563/216 500/549/216
f 512/563/215 513/564/215 501/550/215
f 513/564/214 514/565/214 502/551/214
f 514/565/213 515/566/213 503/552/213
f 515/566/212 516/567/212 504/553/212
f 516/567/211 505/568/211 493/554/211
f 505/568/222 517/578/222 518/569/222
f 518/569/221 519/580/221 507/570/221
f 507/570/220 519/580/220 520/571/220
f 520/571/219 521/572/219 509/557/219
f 521/572/218 522/583/218 510/558/218
f 510/558/217 522/583/217 523/573/217
f 523/574/228 524/586/228 512/563/228
f 512/563/227 524/586/227 525/575/227
f 525/575/226 526/576/226 514/565/226
f 526/576/225 527/589/225 515/566/225
f 515/566/224 527/589/224 528/577/224
f 528/577/223 517/578/223 505/568/223
f 517/578/234 529/591/234 530/579/234
f 530/579/233 531/581/233 519/580/233
f 531/581/232 532/595/232 520/571/232
f 520/571/231 532/595/231 533/582/231
f 533/582/230 534/597/230 522/583/230
f 522/583/229 534/597/229 535/584/229
f 535/585/240 536/600/240 524/586/240
f 524/586/239 536/600/239 537/587/239
f 537/587/238 538/588/238 526/576/238
f 538/588/237 539/604/237 527/589/237
f 527/589/236 539/604/236 540/590/236
f 540/590/235 529/591/235 517/578/235
f 529/591/246 541/608/246 542/592/246
f 530/579/245 542/592/245 543/593/245
f 531/581/244 543/593/244 544/594/244
f 532/595/243 544/594/243 545/596/243
f 545/596/242 546/613/242 534/597/242
f 534/597/241 546/613/241 547/598/241
f 547/599/252 548/601/252 536/600/252
f 548/601/251 549/602/251 537/587/251
f 549/602/250 550/603/250 538/588/250
f 550/603/249 551/605/249 539/604/249
f 551/605/248 552/606/248 540/590/248
f 552/606/247 541/608/247 529/591/247
f 553/607/258 554/609/258 542/592/258
f 554/609/257 555/610/257 543/593/257
f 555/610/256 556/611/256 544/594/256
f 556/611/255 557/612/255 545/596/255
f 557/612/254 558/614/254 546/613/254
f 558/614/253 559/624/253 547/598/253
f 547/599/264 559/626/264 560/615/264
f 548/601/263 560/615/263 561/616/263
f 561/616/262 562/629/262 550/603/262
f 550/603/261 562/629/261 563/617/261
f 563/617/260 564/632/260 552/606/260
f 552/606/259 564/632/259 553/607/259
f 565/618/270 566/634/270 554/609/270
f 554/609/269 566/634/269 567/619/269
f 555/610/268 567/619/268 568/620/268
f 556/611/267 568/620/267 569/621/267
f 557/612/266 569/621/266 570/622/266
f 558/614/265 570/622/265 571/623/265
f 571/625/276 572/627/276 560/615/276
f 572/627/275 573/628/275 561/616/275
f 573/628/274 574/630/274 562/629/274
f 574/630/273 575/631/273 563/617/273
f 575/631/272 576/633/272 564/632/272
f 576/633/271 565/618/271 553/607/271
f 1/1/282 2/3/282 566/634/282
f 2/3/281 3/5/281 567/619/281
f 3/5/280 4/7/280 568/620/280
f 4/7/279 5/9/279 569/621/279
f 569/621/278 5/9/278 6/10/278
f 6/10/277 7/12/277 571/623/277
f 571/625/288 7/15/288 8/14/288
f 8/14/287 9/17/287 573/628/287
f 573/628/286 9/17/286 10/18/286
f 574/630/285 10/18/285 11/20/285
f 575/631/284 11/20/284 12/22/284
f 576/633/283 12/22/283 1/1/283
